{
  "version": "15.0.4",
  "vulnerabilities": [
    {
      "id": "8ca47a9a678a87230883482c8be9c3cb0c42169d2398da3e0e2d46d5501e9974",
      "name": "Improper Restriction of Operations within the Bounds of a Memory Buffer",
      "description": "An issue was discovered in `ecma/operations/ecma-container-object.c` in JerryScript. Operations with key/value pairs did not consider the case where garbage collection is triggered after the key operation but before the value operation, as demonstrated by improper read access to memory in `ecma_gc_set_object_visited` in `ecma/base/ecma-gc.c`.",
      "severity": "High",
      "solution": "Upgrade to version 2.3.0 or above.",
      "location": {
        "file": "conan.lock",
        "dependency": {
          "iid": 5,
          "package": {
            "name": "jerryscript"
          },
          "version": "2.2.0"
        }
      },
      "identifiers": [
        {
          "type": "gemnasium",
          "name": "Gemnasium-013a038e-8865-4f92-aedc-0796684481d4",
          "value": "013a038e-8865-4f92-aedc-0796684481d4",
          "url": "https://gitlab.com/gitlab-org/security-products/gemnasium-db/-/blob/v1.2.142/conan/jerryscript/CVE-2020-14163.yml"
        },
        {
          "type": "cve",
          "name": "CVE-2020-14163",
          "value": "CVE-2020-14163",
          "url": "https://cve.mitre.org/cgi-bin/cvename.cgi?name=CVE-2020-14163"
        }
      ],
      "links": [
        {
          "url": "https://nvd.nist.gov/vuln/detail/CVE-2020-14163"
        }
      ],
      "details": {
        "vulnerable_package": {
          "type": "text",
          "name": "Vulnerable Package",
          "value": "jerryscript:2.2.0"
        }
      }
    },
    {
      "id": "0f32331f306a2f3263f933f362c3080e1d6dce15fe59c616ddeabc973f54ddf6",
      "name": "Uncontrolled Resource Consumption",
      "description": "JerryScript allows attackers to cause a denial of service (stack consumption) via a proxy operation.",
      "severity": "High",
      "solution": "Upgrade to version 2.3.0 or above.",
      "location": {
        "file": "conan.lock",
        "dependency": {
          "iid": 5,
          "package": {
            "name": "jerryscript"
          },
          "version": "2.2.0"
        }
      },
      "identifiers": [
        {
          "type": "gemnasium",
          "name": "Gemnasium-1dbd122e-b5ab-4cf0-a81b-545500fcfd5e",
          "value": "1dbd122e-b5ab-4cf0-a81b-545500fcfd5e",
          "url": "https://gitlab.com/gitlab-org/security-products/gemnasium-db/-/blob/v1.2.142/conan/jerryscript/CVE-2020-13623.yml"
        },
        {
          "type": "cve",
          "name": "CVE-2020-13623",
          "value": "CVE-2020-13623",
          "url": "https://cve.mitre.org/cgi-bin/cvename.cgi?name=CVE-2020-13623"
        }
      ],
      "links": [
        {
          "url": "https://nvd.nist.gov/vuln/detail/CVE-2020-13623"
        }
      ],
      "details": {
        "vulnerable_package": {
          "type": "text",
          "name": "Vulnerable Package",
          "value": "jerryscript:2.2.0"
        }
      }
    },
    {
      "id": "f789e364237d1e1915a3926ad8a2729d100d4ef1c30456929696433a6d6ec308",
      "name": "Reachable Assertion",
      "description": "JerryScript allows attackers to cause a denial of service (assertion failure) because a property key query for a Proxy object returns unintended data.",
      "severity": "High",
      "solution": "Upgrade to version 2.3.0 or above.",
      "location": {
        "file": "conan.lock",
        "dependency": {
          "iid": 5,
          "package": {
            "name": "jerryscript"
          },
          "version": "2.2.0"
        }
      },
      "identifiers": [
        {
          "type": "gemnasium",
          "name": "Gemnasium-30e927ab-bba0-4585-a3b8-892baf51676e",
          "value": "30e927ab-bba0-4585-a3b8-892baf51676e",
          "url": "https://gitlab.com/gitlab-org/security-products/gemnasium-db/-/blob/v1.2.142/conan/jerryscript/CVE-2020-13622.yml"
        },
        {
          "type": "cve",
          "name": "CVE-2020-13622",
          "value": "CVE-2020-13622",
          "url": "https://cve.mitre.org/cgi-bin/cvename.cgi?name=CVE-2020-13622"
        }
      ],
      "links": [
        {
          "url": "https://nvd.nist.gov/vuln/detail/CVE-2020-13622"
        }
      ],
      "details": {
        "vulnerable_package": {
          "type": "text",
          "name": "Vulnerable Package",
          "value": "jerryscript:2.2.0"
        }
      }
    },
    {
      "id": "038363a1c52a8e262a3c821096219a2bf999852c7a8d4e5c908276f1aec79167",
      "name": "Out-of-bounds Write",
      "description": "JerryScript allows stack consumption via `function a(){new new Proxy(a,{})}JSON.parse(\"[]\",a).`",
      "severity": "High",
      "solution": "Unfortunately, there is no solution available yet.",
      "location": {
        "file": "conan.lock",
        "dependency": {
          "iid": 5,
          "package": {
            "name": "jerryscript"
          },
          "version": "2.2.0"
        }
      },
      "identifiers": [
        {
          "type": "gemnasium",
          "name": "Gemnasium-57af9db1-0aaf-482d-b0b5-1ea4f2027ca0",
          "value": "57af9db1-0aaf-482d-b0b5-1ea4f2027ca0",
          "url": "https://gitlab.com/gitlab-org/security-products/gemnasium-db/-/blob/v1.2.142/conan/jerryscript/CVE-2020-24345.yml"
        },
        {
          "type": "cve",
          "name": "CVE-2020-24345",
          "value": "CVE-2020-24345",
          "url": "https://cve.mitre.org/cgi-bin/cvename.cgi?name=CVE-2020-24345"
        }
      ],
      "links": [
        {
          "url": "https://github.com/jerryscript-project/jerryscript/issues/3977"
        },
        {
          "url": "https://nvd.nist.gov/vuln/detail/CVE-2020-24345"
        }
      ],
      "details": {
        "vulnerable_package": {
          "type": "text",
          "name": "Vulnerable Package",
          "value": "jerryscript:2.2.0"
        }
      }
    },
    {
      "id": "347776bba62a99af12fb343bafb27b17740e8bf74c11e95f47670a1a6cdfb315",
      "name": "Out-of-bounds Read",
      "description": "JerryScript is vulnerable to a buffer over-read.",
      "severity": "High",
      "solution": "Unfortunately, there is no solution available yet.",
      "location": {
        "file": "conan.lock",
        "dependency": {
          "iid": 5,
          "package": {
            "name": "jerryscript"
          },
          "version": "2.2.0"
        }
      },
      "identifiers": [
        {
          "type": "gemnasium",
          "name": "Gemnasium-7c4e8b05-e4e2-43fc-8fea-665da419fd04",
          "value": "7c4e8b05-e4e2-43fc-8fea-665da419fd04",
          "url": "https://gitlab.com/gitlab-org/security-products/gemnasium-db/-/blob/v1.2.142/conan/jerryscript/CVE-2020-24344.yml"
        },
        {
          "type": "cve",
          "name": "CVE-2020-24344",
          "value": "CVE-2020-24344",
          "url": "https://cve.mitre.org/cgi-bin/cvename.cgi?name=CVE-2020-24344"
        }
      ],
      "links": [
        {
          "url": "https://github.com/jerryscript-project/jerryscript/issues/3976"
        },
        {
          "url": "https://nvd.nist.gov/vuln/detail/CVE-2020-24344"
        }
      ],
      "details": {
        "vulnerable_package": {
          "type": "text",
          "name": "Vulnerable Package",
          "value": "jerryscript:2.2.0"
        }
      }
    },
    {
      "id": "61fa95c65e558dd039902fe8209a9604daa235656d425c36fe4e2be5af382ce0",
      "name": "NULL Pointer Dereference",
      "description": "`parser/js/js-scanner.c` in JerryScript mishandles errors during certain out-of-memory conditions, as demonstrated by a `scanner_reverse_info_list` NULL pointer dereference and a `scanner_scan_all` assertion failure.",
      "severity": "High",
      "solution": "Upgrade to version 2.3.0 or above.",
      "location": {
        "file": "conan.lock",
        "dependency": {
          "iid": 5,
          "package": {
            "name": "jerryscript"
          },
          "version": "2.2.0"
        }
      },
      "identifiers": [
        {
          "type": "gemnasium",
          "name": "Gemnasium-e38493c1-c8ba-40b7-9d94-ea7fec727336",
          "value": "e38493c1-c8ba-40b7-9d94-ea7fec727336",
          "url": "https://gitlab.com/gitlab-org/security-products/gemnasium-db/-/blob/v1.2.142/conan/jerryscript/CVE-2020-13649.yml"
        },
        {
          "type": "cve",
          "name": "CVE-2020-13649",
          "value": "CVE-2020-13649",
          "url": "https://cve.mitre.org/cgi-bin/cvename.cgi?name=CVE-2020-13649"
        }
      ],
      "links": [
        {
          "url": "https://nvd.nist.gov/vuln/detail/CVE-2020-13649"
        }
      ],
      "details": {
        "vulnerable_package": {
          "type": "text",
          "name": "Vulnerable Package",
          "value": "jerryscript:2.2.0"
        }
      }
    },
    {
      "id": "e25275d0e21762c5f455c6fea57e342eb0d657be3924156ae4d818bab5b43594",
      "name": "Improper Input Validation",
      "description": "wolfSSL mishandles the change_cipher_spec (CCS) message processing logic for TLS 1.3. If an attacker sends `ChangeCipherSpec` messages in a crafted way involving more than one in a row, the server becomes stuck in the `ProcessReply()` loop, i.e., a denial of service.",
      "severity": "High",
      "solution": "Unfortunately, there is no solution available yet.",
      "location": {
        "file": "conan.lock",
        "dependency": {
          "iid": 6,
          "package": {
            "name": "wolfssl"
          },
          "version": "4.4.0"
        }
      },
      "identifiers": [
        {
          "type": "gemnasium",
          "name": "Gemnasium-3ecb7d77-2505-4ba8-8598-781d7bbfeaf8",
          "value": "3ecb7d77-2505-4ba8-8598-781d7bbfeaf8",
          "url": "https://gitlab.com/gitlab-org/security-products/gemnasium-db/-/blob/v1.2.142/conan/wolfssl/CVE-2020-12457.yml"
        },
        {
          "type": "cve",
          "name": "CVE-2020-12457",
          "value": "CVE-2020-12457",
          "url": "https://cve.mitre.org/cgi-bin/cvename.cgi?name=CVE-2020-12457"
        }
      ],
      "links": [
        {
          "url": "https://nvd.nist.gov/vuln/detail/CVE-2020-12457"
        }
      ],
      "details": {
        "vulnerable_package": {
          "type": "text",
          "name": "Vulnerable Package",
          "value": "wolfssl:4.4.0"
        }
      }
    },
    {
      "id": "7bc88352805ae737a8611c038c2884faf595c3ec4f788cd830cd20a5277f7751",
      "name": "Concurrent Execution using Shared Resource with Improper Synchronization (Race Condition)",
      "description": "An issue was discovered in wolfSSL when single precision is not employed. Local attackers can conduct a cache-timing attack against public key operations. These attackers may already have obtained sensitive information if the affected system has been used for private key operations (e.g., signing with a private key).",
      "severity": "High",
      "solution": "Unfortunately, there is no solution available yet.",
      "location": {
        "file": "conan.lock",
        "dependency": {
          "iid": 6,
          "package": {
            "name": "wolfssl"
          },
          "version": "4.4.0"
        }
      },
      "identifiers": [
        {
          "type": "gemnasium",
          "name": "Gemnasium-f23a47a2-7a1d-46fa-a245-f9d92b1e7e2a",
          "value": "f23a47a2-7a1d-46fa-a245-f9d92b1e7e2a",
          "url": "https://gitlab.com/gitlab-org/security-products/gemnasium-db/-/blob/v1.2.142/conan/wolfssl/CVE-2020-15309.yml"
        },
        {
          "type": "cve",
          "name": "CVE-2020-15309",
          "value": "CVE-2020-15309",
          "url": "https://cve.mitre.org/cgi-bin/cvename.cgi?name=CVE-2020-15309"
        }
      ],
      "links": [
        {
          "url": "https://nvd.nist.gov/vuln/detail/CVE-2020-15309"
        }
      ],
      "details": {
        "vulnerable_package": {
          "type": "text",
          "name": "Vulnerable Package",
          "value": "wolfssl:4.4.0"
        }
      }
    },
    {
      "id": "1e728aa1f0004f1e5e036d411c12f88b78e5cd40b69202b19241c7ae40f77299",
      "name": "Uncontrolled Resource Consumption",
      "description": "GNU Bison before 3.5.4 allows attackers to cause a denial of service (application crash).",
      "severity": "Medium",
      "solution": "Unfortunately, there is no solution at the moment.",
      "location": {
        "file": "conan.lock",
        "dependency": {
          "iid": 3,
          "package": {
            "name": "boost"
          },
          "version": "1.83.0"
        }
      },
      "identifiers": [
        {
          "type": "gemnasium",
          "name": "Gemnasium-7a149e90-5771-4905-8d4e-a64d311113bd",
          "value": "7a149e90-5771-4905-8d4e-a64d311113bd",
          "url": "https://gitlab.com/gitlab-org/security-products/gemnasium-db/-/blob/v1.2.142/conan/boost/CVE-2020-14150.yml"
        },
        {
          "type": "cve",
          "name": "CVE-2020-14150",
          "value": "CVE-2020-14150",
          "url": "https://cve.mitre.org/cgi-bin/cvename.cgi?name=CVE-2020-14150"
        }
      ],
      "links": [
        {
          "url": "https://nvd.nist.gov/vuln/detail/CVE-2020-14150"
        }
      ],
      "details": {
        "introduced_by_package": {
          "type": "text",
          "name": "Introduced by Package",
          "value": "numcpp:2.11.0"
        },
        "shortest_path": {
          "type": "list",
          "name": "Shortest Path",
          "items": [
            {
              "type": "text",
              "value": "numcpp:2.11.0"
            }
          ]
        },
        "vulnerable_package": {
          "type": "text",
          "name": "Vulnerable Package",
          "value": "boost:1.83.0"
        }
      }
    },
    {
      "id": "180a15b22d9868cf6c0507b9591e13ea22fd1cf3933102311ffa7a73079900dd",
      "name": "Cryptographic Issues",
      "description": "An issue was discovered in the DTLS handshake implementation in wolfSSL. Clear DTLS application_data messages in epoch 0 do not produce an out-of-order error. Instead, these messages are returned to the application.",
      "severity": "Medium",
      "solution": "Unfortunately, there is no solution available yet.",
      "location": {
        "file": "conan.lock",
        "dependency": {
          "iid": 6,
          "package": {
            "name": "wolfssl"
          },
          "version": "4.4.0"
        }
      },
      "identifiers": [
        {
          "type": "gemnasium",
          "name": "Gemnasium-e93de5b9-5b92-465c-a764-4851ad6920b0",
          "value": "e93de5b9-5b92-465c-a764-4851ad6920b0",
          "url": "https://gitlab.com/gitlab-org/security-products/gemnasium-db/-/blob/v1.2.142/conan/wolfssl/CVE-2020-24585.yml"
        },
        {
          "type": "cve",
          "name": "CVE-2020-24585",
          "value": "CVE-2020-24585",
          "url": "https://cve.mitre.org/cgi-bin/cvename.cgi?name=CVE-2020-24585"
        }
      ],
      "links": [
        {
          "url": "https://nvd.nist.gov/vuln/detail/CVE-2020-24585"
        }
      ],
      "details": {
        "vulnerable_package": {
          "type": "text",
          "name": "Vulnerable Package",
          "value": "wolfssl:4.4.0"
        }
      }
    },
    {
      "id": "fa758e4b9c0dd8c6520e7802602d1b894727c63daf71e4a671dbd6503620a811",
      "name": "Improper Certificate Validation",
      "description": "wolfSSL mishandles TLS server data in the `WAIT_CERT_CR` state, within `SanityCheckTls13MsgReceived()` in `tls13.c`. This is an incorrect implementation of the TLS client state machine. This allows attackers in a privileged network position to completely impersonate any TLS servers, and read or modify potentially sensitive information between clients using the wolfSSL library and these TLS servers.",
      "severity": "Medium",
      "solution": "Unfortunately, there is no solution available yet.",
      "location": {
        "file": "conan.lock",
        "dependency": {
          "iid": 6,
          "package": {
            "name": "wolfssl"
          },
          "version": "4.4.0"
        }
      },
      "identifiers": [
        {
          "type": "gemnasium",
          "name": "Gemnasium-f334f11b-6d5d-4654-97b6-101f6faa0ad3",
          "value": "f334f11b-6d5d-4654-97b6-101f6faa0ad3",
          "url": "https://gitlab.com/gitlab-org/security-products/gemnasium-db/-/blob/v1.2.142/conan/wolfssl/CVE-2020-24613.yml"
        },
        {
          "type": "cve",
          "name": "CVE-2020-24613",
          "value": "CVE-2020-24613",
          "url": "https://cve.mitre.org/cgi-bin/cvename.cgi?name=CVE-2020-24613"
        }
      ],
      "links": [
        {
          "url": "https://nvd.nist.gov/vuln/detail/CVE-2020-24613"
        }
      ],
      "details": {
        "vulnerable_package": {
          "type": "text",
          "name": "Vulnerable Package",
          "value": "wolfssl:4.4.0"
        }
      }
    }
  ],
  "dependency_files": [
    {
      "path": "conan.lock",
      "package_manager": "conan",
      "dependencies": [
        {
          "iid": 3,
          "dependency_path": [
            {
              "iid": 2
            }
          ],
          "package": {
            "name": "boost"
          },
          "version": "1.83.0"
        },
        {
          "iid": 7,
          "package": {
            "name": "bzip2"
          },
          "version": "1.0.8"
        },
        {
          "iid": 5,
          "direct": true,
          "package": {
            "name": "jerryscript"
          },
          "version": "2.2.0"
        },
        {
          "iid": 8,
          "package": {
            "name": "libbacktrace"
          },
          "version": "cci.20210118"
        },
        {
          "iid": 2,
          "package": {
            "name": "numcpp"
          },
          "version": "2.11.0"
        },
        {
          "iid": 6,
          "direct": true,
          "package": {
            "name": "wolfssl"
          },
          "version": "4.4.0"
        },
        {
          "iid": 4,
          "package": {
            "name": "zlib"
          },
          "version": "1.3"
        },
        {
          "iid": 1,
          "package": {
            "name": "zstd"
          },
          "version": "1.4.4"
        }
      ]
    }
  ],
  "scan": {
    "analyzer": {
      "id": "gemnasium",
      "name": "Gemnasium",
      "url": "https://gitlab.com/gitlab-org/security-products/analyzers/gemnasium",
      "vendor": {
        "name": "GitLab"
      },
      "version": "4.2.1"
    },
    "scanner": {
      "id": "gemnasium",
      "name": "Gemnasium",
      "url": "https://gitlab.com/gitlab-org/security-products/analyzers/gemnasium",
      "vendor": {
        "name": "GitLab"
      },
      "version": "4.2.1"
    },
    "type": "dependency_scanning",
    "start_time": "2023-08-10T17:03:19",
    "end_time": "2023-08-10T17:03:23",
    "status": "success"
  }
}
