[
{"range": "", "error": "version not specified", "version": ""},
{"range": "<1.8.1", "version": "0.7.10p1", "satisfies": true},
{"range": "<1.8.1", "version": "0.7.11p1", "satisfies": true},
{"range": "<1.8.1", "version": "0.7.11p2", "satisfies": true},
{"range": "<1.8.1", "version": "0.7.11p3", "satisfies": true},
{"range": "<1.8.1", "version": "0.8.1p1", "satisfies": true},
{"range": "<1.8.1", "version": "0.8.3p1", "satisfies": true},
{"range": "<1.8.1", "version": "0.8.4p1", "satisfies": true},
{"range": "<1.8.1", "version": "0.8.4p2", "satisfies": true},
{"range": "<1.8.1", "version": "0.8.6p1", "satisfies": true},
{"range": "<1.8.1", "version": "0.8.7p1", "satisfies": true},
{"range": "<1.8.2||>=2.0.0,<2.3.1", "version": "0.7.10p1", "satisfies": true},
{"range": "<1.8.2||>=2.0.0,<2.3.1", "version": "0.7.11p1", "satisfies": true},
{"range": "<1.8.2||>=2.0.0,<2.3.1", "version": "0.7.11p2", "satisfies": true},
{"range": "<1.8.2||>=2.0.0,<2.3.1", "version": "0.7.11p3", "satisfies": true},
{"range": "<1.8.2||>=2.0.0,<2.3.1", "version": "0.8.1p1", "satisfies": true},
{"range": "<1.8.2||>=2.0.0,<2.3.1", "version": "0.8.3p1", "satisfies": true},
{"range": "<1.8.2||>=2.0.0,<2.3.1", "version": "0.8.4p1", "satisfies": true},
{"range": "<1.8.2||>=2.0.0,<2.3.1", "version": "0.8.4p2", "satisfies": true},
{"range": "<1.8.2||>=2.0.0,<2.3.1", "version": "0.8.6p1", "satisfies": true},
{"range": "<1.8.2||>=2.0.0,<2.3.1", "version": "0.8.7p1", "satisfies": true},
{"range": "==2.0.1", "version": "", "error": "version not specified"},
{"range": ">0.7.11p1,<=0.7.11p3||>=2.0.0,<2.3.1", "version": "0.7.11p2", "satisfies": true},
{"range": ">0.7.11p1,<=0.7.11p3||>=2.0.0,<2.3.1", "version": "0.7.11p4", "satisfies": false},
{"range": ">0.7.11||>=2.0.0,<2.3.1", "version": "0.7.11p1", "satisfies": true},
{"range": ">5.0a,<5.0rc2||<4.3.7", "version": "5.0b1.post1", "satisfies": true},
{"range": ">=0.4.0,<0.4.9", "version": "0.4.0alpha1", "satisfies": false},
{"range": ">=0.6.3&&<1.0.1", "version": "1.0.0", "satisfies": true},
{"range": ">=1.11.0,<1.11.23||>=2.1.0,<2.1.11||>=2.2.0,<2.2.4", "version": "1.0.1", "satisfies": false},
{"range": ">=1.11.0,<1.11.23||>=2.1.0,<2.1.11||>=2.2.0,<2.2.4", "version": "1.0.2", "satisfies": false},
{"range": ">=1.11.0,<1.11.23||>=2.1.0,<2.1.11||>=2.2.0,<2.2.4", "version": "1.0.3", "satisfies": false},
{"range": ">=1.11.0,<1.11.23||>=2.1.0,<2.1.11||>=2.2.0,<2.2.4", "version": "1.0.4", "satisfies": false},
{"range": ">=1.11.0,<1.11.23||>=2.1.0,<2.1.11||>=2.2.0,<2.2.4", "version": "1.1", "satisfies": false},
{"range": ">=1.11.0,<1.11.23||>=2.1.0,<2.1.11||>=2.2.0,<2.2.4", "version": "1.1.1", "satisfies": false},
{"range": ">=1.11.0,<1.11.23||>=2.1.0,<2.1.11||>=2.2.0,<2.2.4", "version": "1.1.2", "satisfies": false},
{"range": ">=1.11.0,<1.11.23||>=2.1.0,<2.1.11||>=2.2.0,<2.2.4", "version": "1.1.3", "satisfies": false},
{"range": ">=1.11.0,<1.11.23||>=2.1.0,<2.1.11||>=2.2.0,<2.2.4", "version": "1.1.4", "satisfies": false},
{"range": ">=1.11.0,<1.11.23||>=2.1.0,<2.1.11||>=2.2.0,<2.2.4", "version": "1.10", "satisfies": false},
{"range": ">=1.11.0,<1.11.23||>=2.1.0,<2.1.11||>=2.2.0,<2.2.4", "version": "1.10.1", "satisfies": false},
{"range": ">=1.11.0,<1.11.23||>=2.1.0,<2.1.11||>=2.2.0,<2.2.4", "version": "1.10.2", "satisfies": false},
{"range": ">=1.11.0,<1.11.23||>=2.1.0,<2.1.11||>=2.2.0,<2.2.4", "version": "1.10.3", "satisfies": false},
{"range": ">=1.11.0,<1.11.23||>=2.1.0,<2.1.11||>=2.2.0,<2.2.4", "version": "1.10.4", "satisfies": false},
{"range": ">=1.11.0,<1.11.23||>=2.1.0,<2.1.11||>=2.2.0,<2.2.4", "version": "1.10.5", "satisfies": false},
{"range": ">=1.11.0,<1.11.23||>=2.1.0,<2.1.11||>=2.2.0,<2.2.4", "version": "1.10.6", "satisfies": false},
{"range": ">=1.11.0,<1.11.23||>=2.1.0,<2.1.11||>=2.2.0,<2.2.4", "version": "1.10.7", "satisfies": false},
{"range": ">=1.11.0,<1.11.23||>=2.1.0,<2.1.11||>=2.2.0,<2.2.4", "version": "1.10.8", "satisfies": false},
{"range": ">=1.11.0,<1.11.23||>=2.1.0,<2.1.11||>=2.2.0,<2.2.4", "version": "1.10a1", "satisfies": false},
{"range": ">=1.11.0,<1.11.23||>=2.1.0,<2.1.11||>=2.2.0,<2.2.4", "version": "1.10b1", "satisfies": false},
{"range": ">=1.11.0,<1.11.23||>=2.1.0,<2.1.11||>=2.2.0,<2.2.4", "version": "1.10rc1", "satisfies": false},
{"range": ">=1.11.0,<1.11.23||>=2.1.0,<2.1.11||>=2.2.0,<2.2.4", "version": "1.11", "satisfies": true},
{"range": ">=1.11.0,<1.11.23||>=2.1.0,<2.1.11||>=2.2.0,<2.2.4", "version": "1.11.23", "satisfies": false},
{"range": ">=1.11.0,<1.11.23||>=2.1.0,<2.1.11||>=2.2.0,<2.2.4", "version": "1.2", "satisfies": false},
{"range": ">=1.11.0,<1.11.23||>=2.1.0,<2.1.11||>=2.2.0,<2.2.4", "version": "1.2.1", "satisfies": false},
{"range": ">=1.11.0,<1.11.23||>=2.1.0,<2.1.11||>=2.2.0,<2.2.4", "version": "1.2.2", "satisfies": false},
{"range": ">=1.11.0,<1.11.23||>=2.1.0,<2.1.11||>=2.2.0,<2.2.4", "version": "1.2.3", "satisfies": false},
{"range": ">=1.11.0,<1.11.23||>=2.1.0,<2.1.11||>=2.2.0,<2.2.4", "version": "1.2.4", "satisfies": false},
{"range": ">=1.11.0,<1.11.23||>=2.1.0,<2.1.11||>=2.2.0,<2.2.4", "version": "1.2.5", "satisfies": false},
{"range": ">=1.11.0,<1.11.23||>=2.1.0,<2.1.11||>=2.2.0,<2.2.4", "version": "1.2.6", "satisfies": false},
{"range": ">=1.11.0,<1.11.23||>=2.1.0,<2.1.11||>=2.2.0,<2.2.4", "version": "1.2.7", "satisfies": false},
{"range": ">=1.11.0,<1.11.23||>=2.1.0,<2.1.11||>=2.2.0,<2.2.4", "version": "1.3", "satisfies": false},
{"range": ">=1.11.0,<1.11.23||>=2.1.0,<2.1.11||>=2.2.0,<2.2.4", "version": "1.3.1", "satisfies": false},
{"range": ">=1.11.0,<1.11.23||>=2.1.0,<2.1.11||>=2.2.0,<2.2.4", "version": "1.3.2", "satisfies": false},
{"range": ">=1.11.0,<1.11.23||>=2.1.0,<2.1.11||>=2.2.0,<2.2.4", "version": "1.3.3", "satisfies": false},
{"range": ">=1.11.0,<1.11.23||>=2.1.0,<2.1.11||>=2.2.0,<2.2.4", "version": "1.3.4", "satisfies": false},
{"range": ">=1.11.0,<1.11.23||>=2.1.0,<2.1.11||>=2.2.0,<2.2.4", "version": "1.3.5", "satisfies": false},
{"range": ">=1.11.0,<1.11.23||>=2.1.0,<2.1.11||>=2.2.0,<2.2.4", "version": "1.3.6", "satisfies": false},
{"range": ">=1.11.0,<1.11.23||>=2.1.0,<2.1.11||>=2.2.0,<2.2.4", "version": "1.3.7", "satisfies": false},
{"range": ">=1.11.0,<1.11.23||>=2.1.0,<2.1.11||>=2.2.0,<2.2.4", "version": "1.4", "satisfies": false},
{"range": ">=1.11.0,<1.11.23||>=2.1.0,<2.1.11||>=2.2.0,<2.2.4", "version": "1.4.1", "satisfies": false},
{"range": ">=1.11.0,<1.11.23||>=2.1.0,<2.1.11||>=2.2.0,<2.2.4", "version": "1.4.10", "satisfies": false},
{"range": ">=1.11.0,<1.11.23||>=2.1.0,<2.1.11||>=2.2.0,<2.2.4", "version": "1.4.11", "satisfies": false},
{"range": ">=1.11.0,<1.11.23||>=2.1.0,<2.1.11||>=2.2.0,<2.2.4", "version": "1.4.12", "satisfies": false},
{"range": ">=1.11.0,<1.11.23||>=2.1.0,<2.1.11||>=2.2.0,<2.2.4", "version": "1.4.13", "satisfies": false},
{"range": ">=1.11.0,<1.11.23||>=2.1.0,<2.1.11||>=2.2.0,<2.2.4", "version": "1.4.14", "satisfies": false},
{"range": ">=1.11.0,<1.11.23||>=2.1.0,<2.1.11||>=2.2.0,<2.2.4", "version": "1.4.15", "satisfies": false},
{"range": ">=1.11.0,<1.11.23||>=2.1.0,<2.1.11||>=2.2.0,<2.2.4", "version": "1.4.16", "satisfies": false},
{"range": ">=1.11.0,<1.11.23||>=2.1.0,<2.1.11||>=2.2.0,<2.2.4", "version": "1.4.17", "satisfies": false},
{"range": ">=1.11.0,<1.11.23||>=2.1.0,<2.1.11||>=2.2.0,<2.2.4", "version": "1.4.18", "satisfies": false},
{"range": ">=1.11.0,<1.11.23||>=2.1.0,<2.1.11||>=2.2.0,<2.2.4", "version": "1.4.19", "satisfies": false},
{"range": ">=1.11.0,<1.11.23||>=2.1.0,<2.1.11||>=2.2.0,<2.2.4", "version": "1.4.2", "satisfies": false},
{"range": ">=1.11.0,<1.11.23||>=2.1.0,<2.1.11||>=2.2.0,<2.2.4", "version": "1.4.20", "satisfies": false},
{"range": ">=1.11.0,<1.11.23||>=2.1.0,<2.1.11||>=2.2.0,<2.2.4", "version": "1.4.21", "satisfies": false},
{"range": ">=1.11.0,<1.11.23||>=2.1.0,<2.1.11||>=2.2.0,<2.2.4", "version": "1.4.22", "satisfies": false},
{"range": ">=1.11.0,<1.11.23||>=2.1.0,<2.1.11||>=2.2.0,<2.2.4", "version": "1.4.3", "satisfies": false},
{"range": ">=1.11.0,<1.11.23||>=2.1.0,<2.1.11||>=2.2.0,<2.2.4", "version": "1.4.4", "satisfies": false},
{"range": ">=1.11.0,<1.11.23||>=2.1.0,<2.1.11||>=2.2.0,<2.2.4", "version": "1.4.5", "satisfies": false},
{"range": ">=1.11.0,<1.11.23||>=2.1.0,<2.1.11||>=2.2.0,<2.2.4", "version": "1.4.6", "satisfies": false},
{"range": ">=1.11.0,<1.11.23||>=2.1.0,<2.1.11||>=2.2.0,<2.2.4", "version": "1.4.7", "satisfies": false},
{"range": ">=1.11.0,<1.11.23||>=2.1.0,<2.1.11||>=2.2.0,<2.2.4", "version": "1.4.8", "satisfies": false},
{"range": ">=1.11.0,<1.11.23||>=2.1.0,<2.1.11||>=2.2.0,<2.2.4", "version": "1.4.9", "satisfies": false},
{"range": ">=1.11.0,<1.11.23||>=2.1.0,<2.1.11||>=2.2.0,<2.2.4", "version": "1.5", "satisfies": false},
{"range": ">=1.11.0,<1.11.23||>=2.1.0,<2.1.11||>=2.2.0,<2.2.4", "version": "1.5.1", "satisfies": false},
{"range": ">=1.11.0,<1.11.23||>=2.1.0,<2.1.11||>=2.2.0,<2.2.4", "version": "1.5.10", "satisfies": false},
{"range": ">=1.11.0,<1.11.23||>=2.1.0,<2.1.11||>=2.2.0,<2.2.4", "version": "1.5.11", "satisfies": false},
{"range": ">=1.11.0,<1.11.23||>=2.1.0,<2.1.11||>=2.2.0,<2.2.4", "version": "1.5.12", "satisfies": false},
{"range": ">=1.11.0,<1.11.23||>=2.1.0,<2.1.11||>=2.2.0,<2.2.4", "version": "1.5.2", "satisfies": false},
{"range": ">=1.11.0,<1.11.23||>=2.1.0,<2.1.11||>=2.2.0,<2.2.4", "version": "1.5.3", "satisfies": false},
{"range": ">=1.11.0,<1.11.23||>=2.1.0,<2.1.11||>=2.2.0,<2.2.4", "version": "1.5.4", "satisfies": false},
{"range": ">=1.11.0,<1.11.23||>=2.1.0,<2.1.11||>=2.2.0,<2.2.4", "version": "1.5.5", "satisfies": false},
{"range": ">=1.11.0,<1.11.23||>=2.1.0,<2.1.11||>=2.2.0,<2.2.4", "version": "1.5.6", "satisfies": false},
{"range": ">=1.11.0,<1.11.23||>=2.1.0,<2.1.11||>=2.2.0,<2.2.4", "version": "1.5.7", "satisfies": false},
{"range": ">=1.11.0,<1.11.23||>=2.1.0,<2.1.11||>=2.2.0,<2.2.4", "version": "1.5.8", "satisfies": false},
{"range": ">=1.11.0,<1.11.23||>=2.1.0,<2.1.11||>=2.2.0,<2.2.4", "version": "1.5.9", "satisfies": false},
{"range": ">=1.11.0,<1.11.23||>=2.1.0,<2.1.11||>=2.2.0,<2.2.4", "version": "1.6", "satisfies": false},
{"range": ">=1.11.0,<1.11.23||>=2.1.0,<2.1.11||>=2.2.0,<2.2.4", "version": "1.6.1", "satisfies": false},
{"range": ">=1.11.0,<1.11.23||>=2.1.0,<2.1.11||>=2.2.0,<2.2.4", "version": "1.6.10", "satisfies": false},
{"range": ">=1.11.0,<1.11.23||>=2.1.0,<2.1.11||>=2.2.0,<2.2.4", "version": "1.6.11", "satisfies": false},
{"range": ">=1.11.0,<1.11.23||>=2.1.0,<2.1.11||>=2.2.0,<2.2.4", "version": "1.6.3", "satisfies": false},
{"range": ">=1.11.0,<1.11.23||>=2.1.0,<2.1.11||>=2.2.0,<2.2.4", "version": "1.6.4", "satisfies": false},
{"range": ">=1.11.0,<1.11.23||>=2.1.0,<2.1.11||>=2.2.0,<2.2.4", "version": "1.6.5", "satisfies": false},
{"range": ">=1.11.0,<1.11.23||>=2.1.0,<2.1.11||>=2.2.0,<2.2.4", "version": "1.6.6", "satisfies": false},
{"range": ">=1.11.0,<1.11.23||>=2.1.0,<2.1.11||>=2.2.0,<2.2.4", "version": "1.6.7", "satisfies": false},
{"range": ">=1.11.0,<1.11.23||>=2.1.0,<2.1.11||>=2.2.0,<2.2.4", "version": "1.6.8", "satisfies": false},
{"range": ">=1.11.0,<1.11.23||>=2.1.0,<2.1.11||>=2.2.0,<2.2.4", "version": "1.6.9", "satisfies": false},
{"range": ">=1.11.0,<1.11.23||>=2.1.0,<2.1.11||>=2.2.0,<2.2.4", "version": "1.7", "satisfies": false},
{"range": ">=1.11.0,<1.11.23||>=2.1.0,<2.1.11||>=2.2.0,<2.2.4", "version": "1.7.1", "satisfies": false},
{"range": ">=1.11.0,<1.11.23||>=2.1.0,<2.1.11||>=2.2.0,<2.2.4", "version": "1.7.10", "satisfies": false},
{"range": ">=1.11.0,<1.11.23||>=2.1.0,<2.1.11||>=2.2.0,<2.2.4", "version": "1.7.11", "satisfies": false},
{"range": ">=1.11.0,<1.11.23||>=2.1.0,<2.1.11||>=2.2.0,<2.2.4", "version": "1.7.2", "satisfies": false},
{"range": ">=1.11.0,<1.11.23||>=2.1.0,<2.1.11||>=2.2.0,<2.2.4", "version": "1.7.3", "satisfies": false},
{"range": ">=1.11.0,<1.11.23||>=2.1.0,<2.1.11||>=2.2.0,<2.2.4", "version": "1.7.4", "satisfies": false},
{"range": ">=1.11.0,<1.11.23||>=2.1.0,<2.1.11||>=2.2.0,<2.2.4", "version": "1.7.5", "satisfies": false},
{"range": ">=1.11.0,<1.11.23||>=2.1.0,<2.1.11||>=2.2.0,<2.2.4", "version": "1.7.6", "satisfies": false},
{"range": ">=1.11.0,<1.11.23||>=2.1.0,<2.1.11||>=2.2.0,<2.2.4", "version": "1.7.7", "satisfies": false},
{"range": ">=1.11.0,<1.11.23||>=2.1.0,<2.1.11||>=2.2.0,<2.2.4", "version": "1.7.8", "satisfies": false},
{"range": ">=1.11.0,<1.11.23||>=2.1.0,<2.1.11||>=2.2.0,<2.2.4", "version": "1.7.9", "satisfies": false},
{"range": ">=1.11.0,<1.11.23||>=2.1.0,<2.1.11||>=2.2.0,<2.2.4", "version": "1.7a2", "satisfies": false},
{"range": ">=1.11.0,<1.11.23||>=2.1.0,<2.1.11||>=2.2.0,<2.2.4", "version": "1.8", "satisfies": false},
{"range": ">=1.11.0,<1.11.23||>=2.1.0,<2.1.11||>=2.2.0,<2.2.4", "version": "1.8.1", "satisfies": false},
{"range": ">=1.11.0,<1.11.23||>=2.1.0,<2.1.11||>=2.2.0,<2.2.4", "version": "1.8.10", "satisfies": false},
{"range": ">=1.11.0,<1.11.23||>=2.1.0,<2.1.11||>=2.2.0,<2.2.4", "version": "1.8.11", "satisfies": false},
{"range": ">=1.11.0,<1.11.23||>=2.1.0,<2.1.11||>=2.2.0,<2.2.4", "version": "1.8.12", "satisfies": false},
{"range": ">=1.11.0,<1.11.23||>=2.1.0,<2.1.11||>=2.2.0,<2.2.4", "version": "1.8.13", "satisfies": false},
{"range": ">=1.11.0,<1.11.23||>=2.1.0,<2.1.11||>=2.2.0,<2.2.4", "version": "1.8.14", "satisfies": false},
{"range": ">=1.11.0,<1.11.23||>=2.1.0,<2.1.11||>=2.2.0,<2.2.4", "version": "1.8.15", "satisfies": false},
{"range": ">=1.11.0,<1.11.23||>=2.1.0,<2.1.11||>=2.2.0,<2.2.4", "version": "1.8.16", "satisfies": false},
{"range": ">=1.11.0,<1.11.23||>=2.1.0,<2.1.11||>=2.2.0,<2.2.4", "version": "1.8.17", "satisfies": false},
{"range": ">=1.11.0,<1.11.23||>=2.1.0,<2.1.11||>=2.2.0,<2.2.4", "version": "1.8.18", "satisfies": false},
{"range": ">=1.11.0,<1.11.23||>=2.1.0,<2.1.11||>=2.2.0,<2.2.4", "version": "1.8.19", "satisfies": false},
{"range": ">=1.11.0,<1.11.23||>=2.1.0,<2.1.11||>=2.2.0,<2.2.4", "version": "1.8.2", "satisfies": false},
{"range": ">=1.11.0,<1.11.23||>=2.1.0,<2.1.11||>=2.2.0,<2.2.4", "version": "1.8.3", "satisfies": false},
{"range": ">=1.11.0,<1.11.23||>=2.1.0,<2.1.11||>=2.2.0,<2.2.4", "version": "1.8.4", "satisfies": false},
{"range": ">=1.11.0,<1.11.23||>=2.1.0,<2.1.11||>=2.2.0,<2.2.4", "version": "1.8.5", "satisfies": false},
{"range": ">=1.11.0,<1.11.23||>=2.1.0,<2.1.11||>=2.2.0,<2.2.4", "version": "1.8.6", "satisfies": false},
{"range": ">=1.11.0,<1.11.23||>=2.1.0,<2.1.11||>=2.2.0,<2.2.4", "version": "1.8.7", "satisfies": false},
{"range": ">=1.11.0,<1.11.23||>=2.1.0,<2.1.11||>=2.2.0,<2.2.4", "version": "1.8.8", "satisfies": false},
{"range": ">=1.11.0,<1.11.23||>=2.1.0,<2.1.11||>=2.2.0,<2.2.4", "version": "1.8.9", "satisfies": false},
{"range": ">=1.11.0,<1.11.23||>=2.1.0,<2.1.11||>=2.2.0,<2.2.4", "version": "1.8a1", "satisfies": false},
{"range": ">=1.11.0,<1.11.23||>=2.1.0,<2.1.11||>=2.2.0,<2.2.4", "version": "1.8b1", "satisfies": false},
{"range": ">=1.11.0,<1.11.23||>=2.1.0,<2.1.11||>=2.2.0,<2.2.4", "version": "1.8b2", "satisfies": false},
{"range": ">=1.11.0,<1.11.23||>=2.1.0,<2.1.11||>=2.2.0,<2.2.4", "version": "1.8c1", "satisfies": false},
{"range": ">=1.11.0,<1.11.23||>=2.1.0,<2.1.11||>=2.2.0,<2.2.4", "version": "1.9", "satisfies": false},
{"range": ">=1.11.0,<1.11.23||>=2.1.0,<2.1.11||>=2.2.0,<2.2.4", "version": "1.9.1", "satisfies": false},
{"range": ">=1.11.0,<1.11.23||>=2.1.0,<2.1.11||>=2.2.0,<2.2.4", "version": "1.9.10", "satisfies": false},
{"range": ">=1.11.0,<1.11.23||>=2.1.0,<2.1.11||>=2.2.0,<2.2.4", "version": "1.9.11", "satisfies": false},
{"range": ">=1.11.0,<1.11.23||>=2.1.0,<2.1.11||>=2.2.0,<2.2.4", "version": "1.9.12", "satisfies": false},
{"range": ">=1.11.0,<1.11.23||>=2.1.0,<2.1.11||>=2.2.0,<2.2.4", "version": "1.9.13", "satisfies": false},
{"range": ">=1.11.0,<1.11.23||>=2.1.0,<2.1.11||>=2.2.0,<2.2.4", "version": "1.9.2", "satisfies": false},
{"range": ">=1.11.0,<1.11.23||>=2.1.0,<2.1.11||>=2.2.0,<2.2.4", "version": "1.9.3", "satisfies": false},
{"range": ">=1.11.0,<1.11.23||>=2.1.0,<2.1.11||>=2.2.0,<2.2.4", "version": "1.9.4", "satisfies": false},
{"range": ">=1.11.0,<1.11.23||>=2.1.0,<2.1.11||>=2.2.0,<2.2.4", "version": "1.9.5", "satisfies": false},
{"range": ">=1.11.0,<1.11.23||>=2.1.0,<2.1.11||>=2.2.0,<2.2.4", "version": "1.9.6", "satisfies": false},
{"range": ">=1.11.0,<1.11.23||>=2.1.0,<2.1.11||>=2.2.0,<2.2.4", "version": "1.9.7", "satisfies": false},
{"range": ">=1.11.0,<1.11.23||>=2.1.0,<2.1.11||>=2.2.0,<2.2.4", "version": "1.9.8", "satisfies": false},
{"range": ">=1.11.0,<1.11.23||>=2.1.0,<2.1.11||>=2.2.0,<2.2.4", "version": "1.9.9", "satisfies": false},
{"range": ">=1.11.0,<1.11.23||>=2.1.0,<2.1.11||>=2.2.0,<2.2.4", "version": "1.9a1", "satisfies": false},
{"range": ">=1.11.0,<1.11.23||>=2.1.0,<2.1.11||>=2.2.0,<2.2.4", "version": "1.9b1", "satisfies": false},
{"range": ">=1.11.0,<1.11.23||>=2.1.0,<2.1.11||>=2.2.0,<2.2.4", "version": "1.9rc1", "satisfies": false},
{"range": ">=1.11.0,<1.11.23||>=2.1.0,<2.1.11||>=2.2.0,<2.2.4", "version": "1.9rc2", "satisfies": false},
{"range": ">=1.11.0,<1.11.23||>=2.1.0,<2.1.11||>=2.2.0,<2.2.4", "version": "2.0", "satisfies": false},
{"range": ">=1.11.0,<1.11.23||>=2.1.0,<2.1.11||>=2.2.0,<2.2.4", "version": "2.0.1", "satisfies": false},
{"range": ">=1.11.0,<1.11.23||>=2.1.0,<2.1.11||>=2.2.0,<2.2.4", "version": "2.0.10", "satisfies": false},
{"range": ">=1.11.0,<1.11.23||>=2.1.0,<2.1.11||>=2.2.0,<2.2.4", "version": "2.0.12", "satisfies": false},
{"range": ">=1.11.0,<1.11.23||>=2.1.0,<2.1.11||>=2.2.0,<2.2.4", "version": "2.0.13", "satisfies": false},
{"range": ">=1.11.0,<1.11.23||>=2.1.0,<2.1.11||>=2.2.0,<2.2.4", "version": "2.0.2", "satisfies": false},
{"range": ">=1.11.0,<1.11.23||>=2.1.0,<2.1.11||>=2.2.0,<2.2.4", "version": "2.0.3", "satisfies": false},
{"range": ">=1.11.0,<1.11.23||>=2.1.0,<2.1.11||>=2.2.0,<2.2.4", "version": "2.0.4", "satisfies": false},
{"range": ">=1.11.0,<1.11.23||>=2.1.0,<2.1.11||>=2.2.0,<2.2.4", "version": "2.0.5", "satisfies": false},
{"range": ">=1.11.0,<1.11.23||>=2.1.0,<2.1.11||>=2.2.0,<2.2.4", "version": "2.0.6", "satisfies": false},
{"range": ">=1.11.0,<1.11.23||>=2.1.0,<2.1.11||>=2.2.0,<2.2.4", "version": "2.0.7", "satisfies": false},
{"range": ">=1.11.0,<1.11.23||>=2.1.0,<2.1.11||>=2.2.0,<2.2.4", "version": "2.0.8", "satisfies": false},
{"range": ">=1.11.0,<1.11.23||>=2.1.0,<2.1.11||>=2.2.0,<2.2.4", "version": "2.0.9", "satisfies": false},
{"range": ">=1.11.0,<1.11.23||>=2.1.0,<2.1.11||>=2.2.0,<2.2.4", "version": "2.0a1", "satisfies": false},
{"range": ">=1.11.0,<1.11.23||>=2.1.0,<2.1.11||>=2.2.0,<2.2.4", "version": "2.0b1", "satisfies": false},
{"range": ">=1.11.0,<1.11.23||>=2.1.0,<2.1.11||>=2.2.0,<2.2.4", "version": "2.0rc1", "satisfies": false},
{"range": ">=1.11.0,<1.11.23||>=2.1.0,<2.1.11||>=2.2.0,<2.2.4", "version": "2.1", "satisfies": true},
{"range": ">=1.11.0,<1.11.23||>=2.1.0,<2.1.11||>=2.2.0,<2.2.4", "version": "2.1.11", "satisfies": false},
{"range": ">=1.11.0,<1.11.23||>=2.1.0,<2.1.11||>=2.2.0,<2.2.4", "version": "2.2", "satisfies": true},
{"range": ">=1.11.0,<1.11.23||>=2.1.0,<2.1.11||>=2.2.0,<2.2.4", "version": "2.2.4", "satisfies": false},
{"range": ">=1.11alpha,<1.11||>=1.10.0alpha,<1.10.7||>=1.9.0alpha,<1.9.13||<1.8.18", "version": "1.11a1", "satisfies": true},
{"range": ">=1.11alpha,<1.11||>=1.10.0alpha,<1.10.7||>=1.9.0alpha,<1.9.13||<1.8.18", "version": "1.11b1", "satisfies": true},
{"range": ">=1.11alpha,<1.11||>=1.10.0alpha,<1.10.7||>=1.9.0alpha,<1.9.13||<1.8.18", "version": "1.11rc1", "satisfies": true},
{"range": ">=1.11alpha,<1.11||>=1.10.0alpha,<1.10.7||>=1.9.0alpha,<1.9.13||<1.8.18", "version": "1.7a2", "satisfies": true},
{"range": ">=1.2.3", "version": "0.0.5", "satisfies": false},
{"range": ">=1.2.3", "version": "1.3.3", "satisfies": true},
{"range": ">=1.3.2,<2.4.11", "version": "1.3.3", "satisfies": true},
{"range": ">=1.3.2,<2.4.11", "version": "4.5.7", "satisfies": false},
{"range": ">=1.4,<1.4.11rc1||>=1.5,<1.5.6||>=1.6,<1.6.3", "version": "1.4.10rc2", "satisfies": true},
{"range": ">=1.4,<1.4.11rc1||>=1.5,<1.5.6||>=1.6,<1.6.3", "version": "1.4.11rc2", "satisfies": false},
{"range": ">=1.4,<1.4.11||>=1.5,<1.5.6||>=1.6,<1.6.3", "version": "1.0", "satisfies": false},
{"range": ">=1.4,<1.4.11||>=1.5,<1.5.6||>=1.6,<1.6.3", "version": "1.6.1", "satisfies": true}
]