[
{"range":"","version":""},
{"range":"<1.8.1","version":"0.7.10p1"},
{"range":"<1.8.1","version":"0.7.11p1"},
{"range":"<1.8.1","version":"0.7.11p2"},
{"range":"<1.8.1","version":"0.7.11p3"},
{"range":"<1.8.1","version":"0.8.1p1"},
{"range":"<1.8.1","version":"0.8.3p1"},
{"range":"<1.8.1","version":"0.8.4p1"},
{"range":"<1.8.1","version":"0.8.4p2"},
{"range":"<1.8.1","version":"0.8.6p1"},
{"range":"<1.8.1","version":"0.8.7p1"},
{"range":"<1.8.2||>=2.0.0,<2.3.1","version":"0.7.10p1"},
{"range":"<1.8.2||>=2.0.0,<2.3.1","version":"0.7.11p1"},
{"range":"<1.8.2||>=2.0.0,<2.3.1","version":"0.7.11p2"},
{"range":"<1.8.2||>=2.0.0,<2.3.1","version":"0.7.11p3"},
{"range":"<1.8.2||>=2.0.0,<2.3.1","version":"0.8.1p1"},
{"range":"<1.8.2||>=2.0.0,<2.3.1","version":"0.8.3p1"},
{"range":"<1.8.2||>=2.0.0,<2.3.1","version":"0.8.4p1"},
{"range":"<1.8.2||>=2.0.0,<2.3.1","version":"0.8.4p2"},
{"range":"<1.8.2||>=2.0.0,<2.3.1","version":"0.8.6p1"},
{"range":"<1.8.2||>=2.0.0,<2.3.1","version":"0.8.7p1"},
{"range":"==2.0.1","version":""},
{"range":">0.7.11p1,<=0.7.11p3||>=2.0.0,<2.3.1","version":"0.7.11p2"},
{"range":">0.7.11p1,<=0.7.11p3||>=2.0.0,<2.3.1","version":"0.7.11p4"},
{"range":">0.7.11||>=2.0.0,<2.3.1","version":"0.7.11p1"},
{"range":">5.0a,<5.0rc2||<4.3.7","version":"5.0b1.post1"},
{"range":">=0.4.0,<0.4.9","version":"0.4.0alpha1"},
{"range":">=0.6.3&&<1.0.1","version":"1.0.0"},
{"range":">=1.11.0,<1.11.23||>=2.1.0,<2.1.11||>=2.2.0,<2.2.4","version":"1.0.1"},
{"range":">=1.11.0,<1.11.23||>=2.1.0,<2.1.11||>=2.2.0,<2.2.4","version":"1.0.2"},
{"range":">=1.11.0,<1.11.23||>=2.1.0,<2.1.11||>=2.2.0,<2.2.4","version":"1.0.3"},
{"range":">=1.11.0,<1.11.23||>=2.1.0,<2.1.11||>=2.2.0,<2.2.4","version":"1.0.4"},
{"range":">=1.11.0,<1.11.23||>=2.1.0,<2.1.11||>=2.2.0,<2.2.4","version":"1.1"},
{"range":">=1.11.0,<1.11.23||>=2.1.0,<2.1.11||>=2.2.0,<2.2.4","version":"1.1.1"},
{"range":">=1.11.0,<1.11.23||>=2.1.0,<2.1.11||>=2.2.0,<2.2.4","version":"1.1.2"},
{"range":">=1.11.0,<1.11.23||>=2.1.0,<2.1.11||>=2.2.0,<2.2.4","version":"1.1.3"},
{"range":">=1.11.0,<1.11.23||>=2.1.0,<2.1.11||>=2.2.0,<2.2.4","version":"1.1.4"},
{"range":">=1.11.0,<1.11.23||>=2.1.0,<2.1.11||>=2.2.0,<2.2.4","version":"1.10"},
{"range":">=1.11.0,<1.11.23||>=2.1.0,<2.1.11||>=2.2.0,<2.2.4","version":"1.10.1"},
{"range":">=1.11.0,<1.11.23||>=2.1.0,<2.1.11||>=2.2.0,<2.2.4","version":"1.10.2"},
{"range":">=1.11.0,<1.11.23||>=2.1.0,<2.1.11||>=2.2.0,<2.2.4","version":"1.10.3"},
{"range":">=1.11.0,<1.11.23||>=2.1.0,<2.1.11||>=2.2.0,<2.2.4","version":"1.10.4"},
{"range":">=1.11.0,<1.11.23||>=2.1.0,<2.1.11||>=2.2.0,<2.2.4","version":"1.10.5"},
{"range":">=1.11.0,<1.11.23||>=2.1.0,<2.1.11||>=2.2.0,<2.2.4","version":"1.10.6"},
{"range":">=1.11.0,<1.11.23||>=2.1.0,<2.1.11||>=2.2.0,<2.2.4","version":"1.10.7"},
{"range":">=1.11.0,<1.11.23||>=2.1.0,<2.1.11||>=2.2.0,<2.2.4","version":"1.10.8"},
{"range":">=1.11.0,<1.11.23||>=2.1.0,<2.1.11||>=2.2.0,<2.2.4","version":"1.10a1"},
{"range":">=1.11.0,<1.11.23||>=2.1.0,<2.1.11||>=2.2.0,<2.2.4","version":"1.10b1"},
{"range":">=1.11.0,<1.11.23||>=2.1.0,<2.1.11||>=2.2.0,<2.2.4","version":"1.10rc1"},
{"range":">=1.11.0,<1.11.23||>=2.1.0,<2.1.11||>=2.2.0,<2.2.4","version":"1.11"},
{"range":">=1.11.0,<1.11.23||>=2.1.0,<2.1.11||>=2.2.0,<2.2.4","version":"1.11.23"},
{"range":">=1.11.0,<1.11.23||>=2.1.0,<2.1.11||>=2.2.0,<2.2.4","version":"1.2"},
{"range":">=1.11.0,<1.11.23||>=2.1.0,<2.1.11||>=2.2.0,<2.2.4","version":"1.2.1"},
{"range":">=1.11.0,<1.11.23||>=2.1.0,<2.1.11||>=2.2.0,<2.2.4","version":"1.2.2"},
{"range":">=1.11.0,<1.11.23||>=2.1.0,<2.1.11||>=2.2.0,<2.2.4","version":"1.2.3"},
{"range":">=1.11.0,<1.11.23||>=2.1.0,<2.1.11||>=2.2.0,<2.2.4","version":"1.2.4"},
{"range":">=1.11.0,<1.11.23||>=2.1.0,<2.1.11||>=2.2.0,<2.2.4","version":"1.2.5"},
{"range":">=1.11.0,<1.11.23||>=2.1.0,<2.1.11||>=2.2.0,<2.2.4","version":"1.2.6"},
{"range":">=1.11.0,<1.11.23||>=2.1.0,<2.1.11||>=2.2.0,<2.2.4","version":"1.2.7"},
{"range":">=1.11.0,<1.11.23||>=2.1.0,<2.1.11||>=2.2.0,<2.2.4","version":"1.3"},
{"range":">=1.11.0,<1.11.23||>=2.1.0,<2.1.11||>=2.2.0,<2.2.4","version":"1.3.1"},
{"range":">=1.11.0,<1.11.23||>=2.1.0,<2.1.11||>=2.2.0,<2.2.4","version":"1.3.2"},
{"range":">=1.11.0,<1.11.23||>=2.1.0,<2.1.11||>=2.2.0,<2.2.4","version":"1.3.3"},
{"range":">=1.11.0,<1.11.23||>=2.1.0,<2.1.11||>=2.2.0,<2.2.4","version":"1.3.4"},
{"range":">=1.11.0,<1.11.23||>=2.1.0,<2.1.11||>=2.2.0,<2.2.4","version":"1.3.5"},
{"range":">=1.11.0,<1.11.23||>=2.1.0,<2.1.11||>=2.2.0,<2.2.4","version":"1.3.6"},
{"range":">=1.11.0,<1.11.23||>=2.1.0,<2.1.11||>=2.2.0,<2.2.4","version":"1.3.7"},
{"range":">=1.11.0,<1.11.23||>=2.1.0,<2.1.11||>=2.2.0,<2.2.4","version":"1.4"},
{"range":">=1.11.0,<1.11.23||>=2.1.0,<2.1.11||>=2.2.0,<2.2.4","version":"1.4.1"},
{"range":">=1.11.0,<1.11.23||>=2.1.0,<2.1.11||>=2.2.0,<2.2.4","version":"1.4.10"},
{"range":">=1.11.0,<1.11.23||>=2.1.0,<2.1.11||>=2.2.0,<2.2.4","version":"1.4.11"},
{"range":">=1.11.0,<1.11.23||>=2.1.0,<2.1.11||>=2.2.0,<2.2.4","version":"1.4.12"},
{"range":">=1.11.0,<1.11.23||>=2.1.0,<2.1.11||>=2.2.0,<2.2.4","version":"1.4.13"},
{"range":">=1.11.0,<1.11.23||>=2.1.0,<2.1.11||>=2.2.0,<2.2.4","version":"1.4.14"},
{"range":">=1.11.0,<1.11.23||>=2.1.0,<2.1.11||>=2.2.0,<2.2.4","version":"1.4.15"},
{"range":">=1.11.0,<1.11.23||>=2.1.0,<2.1.11||>=2.2.0,<2.2.4","version":"1.4.16"},
{"range":">=1.11.0,<1.11.23||>=2.1.0,<2.1.11||>=2.2.0,<2.2.4","version":"1.4.17"},
{"range":">=1.11.0,<1.11.23||>=2.1.0,<2.1.11||>=2.2.0,<2.2.4","version":"1.4.18"},
{"range":">=1.11.0,<1.11.23||>=2.1.0,<2.1.11||>=2.2.0,<2.2.4","version":"1.4.19"},
{"range":">=1.11.0,<1.11.23||>=2.1.0,<2.1.11||>=2.2.0,<2.2.4","version":"1.4.2"},
{"range":">=1.11.0,<1.11.23||>=2.1.0,<2.1.11||>=2.2.0,<2.2.4","version":"1.4.20"},
{"range":">=1.11.0,<1.11.23||>=2.1.0,<2.1.11||>=2.2.0,<2.2.4","version":"1.4.21"},
{"range":">=1.11.0,<1.11.23||>=2.1.0,<2.1.11||>=2.2.0,<2.2.4","version":"1.4.22"},
{"range":">=1.11.0,<1.11.23||>=2.1.0,<2.1.11||>=2.2.0,<2.2.4","version":"1.4.3"},
{"range":">=1.11.0,<1.11.23||>=2.1.0,<2.1.11||>=2.2.0,<2.2.4","version":"1.4.4"},
{"range":">=1.11.0,<1.11.23||>=2.1.0,<2.1.11||>=2.2.0,<2.2.4","version":"1.4.5"},
{"range":">=1.11.0,<1.11.23||>=2.1.0,<2.1.11||>=2.2.0,<2.2.4","version":"1.4.6"},
{"range":">=1.11.0,<1.11.23||>=2.1.0,<2.1.11||>=2.2.0,<2.2.4","version":"1.4.7"},
{"range":">=1.11.0,<1.11.23||>=2.1.0,<2.1.11||>=2.2.0,<2.2.4","version":"1.4.8"},
{"range":">=1.11.0,<1.11.23||>=2.1.0,<2.1.11||>=2.2.0,<2.2.4","version":"1.4.9"},
{"range":">=1.11.0,<1.11.23||>=2.1.0,<2.1.11||>=2.2.0,<2.2.4","version":"1.5"},
{"range":">=1.11.0,<1.11.23||>=2.1.0,<2.1.11||>=2.2.0,<2.2.4","version":"1.5.1"},
{"range":">=1.11.0,<1.11.23||>=2.1.0,<2.1.11||>=2.2.0,<2.2.4","version":"1.5.10"},
{"range":">=1.11.0,<1.11.23||>=2.1.0,<2.1.11||>=2.2.0,<2.2.4","version":"1.5.11"},
{"range":">=1.11.0,<1.11.23||>=2.1.0,<2.1.11||>=2.2.0,<2.2.4","version":"1.5.12"},
{"range":">=1.11.0,<1.11.23||>=2.1.0,<2.1.11||>=2.2.0,<2.2.4","version":"1.5.2"},
{"range":">=1.11.0,<1.11.23||>=2.1.0,<2.1.11||>=2.2.0,<2.2.4","version":"1.5.3"},
{"range":">=1.11.0,<1.11.23||>=2.1.0,<2.1.11||>=2.2.0,<2.2.4","version":"1.5.4"},
{"range":">=1.11.0,<1.11.23||>=2.1.0,<2.1.11||>=2.2.0,<2.2.4","version":"1.5.5"},
{"range":">=1.11.0,<1.11.23||>=2.1.0,<2.1.11||>=2.2.0,<2.2.4","version":"1.5.6"},
{"range":">=1.11.0,<1.11.23||>=2.1.0,<2.1.11||>=2.2.0,<2.2.4","version":"1.5.7"},
{"range":">=1.11.0,<1.11.23||>=2.1.0,<2.1.11||>=2.2.0,<2.2.4","version":"1.5.8"},
{"range":">=1.11.0,<1.11.23||>=2.1.0,<2.1.11||>=2.2.0,<2.2.4","version":"1.5.9"},
{"range":">=1.11.0,<1.11.23||>=2.1.0,<2.1.11||>=2.2.0,<2.2.4","version":"1.6"},
{"range":">=1.11.0,<1.11.23||>=2.1.0,<2.1.11||>=2.2.0,<2.2.4","version":"1.6.1"},
{"range":">=1.11.0,<1.11.23||>=2.1.0,<2.1.11||>=2.2.0,<2.2.4","version":"1.6.10"},
{"range":">=1.11.0,<1.11.23||>=2.1.0,<2.1.11||>=2.2.0,<2.2.4","version":"1.6.11"},
{"range":">=1.11.0,<1.11.23||>=2.1.0,<2.1.11||>=2.2.0,<2.2.4","version":"1.6.3"},
{"range":">=1.11.0,<1.11.23||>=2.1.0,<2.1.11||>=2.2.0,<2.2.4","version":"1.6.4"},
{"range":">=1.11.0,<1.11.23||>=2.1.0,<2.1.11||>=2.2.0,<2.2.4","version":"1.6.5"},
{"range":">=1.11.0,<1.11.23||>=2.1.0,<2.1.11||>=2.2.0,<2.2.4","version":"1.6.6"},
{"range":">=1.11.0,<1.11.23||>=2.1.0,<2.1.11||>=2.2.0,<2.2.4","version":"1.6.7"},
{"range":">=1.11.0,<1.11.23||>=2.1.0,<2.1.11||>=2.2.0,<2.2.4","version":"1.6.8"},
{"range":">=1.11.0,<1.11.23||>=2.1.0,<2.1.11||>=2.2.0,<2.2.4","version":"1.6.9"},
{"range":">=1.11.0,<1.11.23||>=2.1.0,<2.1.11||>=2.2.0,<2.2.4","version":"1.7"},
{"range":">=1.11.0,<1.11.23||>=2.1.0,<2.1.11||>=2.2.0,<2.2.4","version":"1.7.1"},
{"range":">=1.11.0,<1.11.23||>=2.1.0,<2.1.11||>=2.2.0,<2.2.4","version":"1.7.10"},
{"range":">=1.11.0,<1.11.23||>=2.1.0,<2.1.11||>=2.2.0,<2.2.4","version":"1.7.11"},
{"range":">=1.11.0,<1.11.23||>=2.1.0,<2.1.11||>=2.2.0,<2.2.4","version":"1.7.2"},
{"range":">=1.11.0,<1.11.23||>=2.1.0,<2.1.11||>=2.2.0,<2.2.4","version":"1.7.3"},
{"range":">=1.11.0,<1.11.23||>=2.1.0,<2.1.11||>=2.2.0,<2.2.4","version":"1.7.4"},
{"range":">=1.11.0,<1.11.23||>=2.1.0,<2.1.11||>=2.2.0,<2.2.4","version":"1.7.5"},
{"range":">=1.11.0,<1.11.23||>=2.1.0,<2.1.11||>=2.2.0,<2.2.4","version":"1.7.6"},
{"range":">=1.11.0,<1.11.23||>=2.1.0,<2.1.11||>=2.2.0,<2.2.4","version":"1.7.7"},
{"range":">=1.11.0,<1.11.23||>=2.1.0,<2.1.11||>=2.2.0,<2.2.4","version":"1.7.8"},
{"range":">=1.11.0,<1.11.23||>=2.1.0,<2.1.11||>=2.2.0,<2.2.4","version":"1.7.9"},
{"range":">=1.11.0,<1.11.23||>=2.1.0,<2.1.11||>=2.2.0,<2.2.4","version":"1.7a2"},
{"range":">=1.11.0,<1.11.23||>=2.1.0,<2.1.11||>=2.2.0,<2.2.4","version":"1.8"},
{"range":">=1.11.0,<1.11.23||>=2.1.0,<2.1.11||>=2.2.0,<2.2.4","version":"1.8.1"},
{"range":">=1.11.0,<1.11.23||>=2.1.0,<2.1.11||>=2.2.0,<2.2.4","version":"1.8.10"},
{"range":">=1.11.0,<1.11.23||>=2.1.0,<2.1.11||>=2.2.0,<2.2.4","version":"1.8.11"},
{"range":">=1.11.0,<1.11.23||>=2.1.0,<2.1.11||>=2.2.0,<2.2.4","version":"1.8.12"},
{"range":">=1.11.0,<1.11.23||>=2.1.0,<2.1.11||>=2.2.0,<2.2.4","version":"1.8.13"},
{"range":">=1.11.0,<1.11.23||>=2.1.0,<2.1.11||>=2.2.0,<2.2.4","version":"1.8.14"},
{"range":">=1.11.0,<1.11.23||>=2.1.0,<2.1.11||>=2.2.0,<2.2.4","version":"1.8.15"},
{"range":">=1.11.0,<1.11.23||>=2.1.0,<2.1.11||>=2.2.0,<2.2.4","version":"1.8.16"},
{"range":">=1.11.0,<1.11.23||>=2.1.0,<2.1.11||>=2.2.0,<2.2.4","version":"1.8.17"},
{"range":">=1.11.0,<1.11.23||>=2.1.0,<2.1.11||>=2.2.0,<2.2.4","version":"1.8.18"},
{"range":">=1.11.0,<1.11.23||>=2.1.0,<2.1.11||>=2.2.0,<2.2.4","version":"1.8.19"},
{"range":">=1.11.0,<1.11.23||>=2.1.0,<2.1.11||>=2.2.0,<2.2.4","version":"1.8.2"},
{"range":">=1.11.0,<1.11.23||>=2.1.0,<2.1.11||>=2.2.0,<2.2.4","version":"1.8.3"},
{"range":">=1.11.0,<1.11.23||>=2.1.0,<2.1.11||>=2.2.0,<2.2.4","version":"1.8.4"},
{"range":">=1.11.0,<1.11.23||>=2.1.0,<2.1.11||>=2.2.0,<2.2.4","version":"1.8.5"},
{"range":">=1.11.0,<1.11.23||>=2.1.0,<2.1.11||>=2.2.0,<2.2.4","version":"1.8.6"},
{"range":">=1.11.0,<1.11.23||>=2.1.0,<2.1.11||>=2.2.0,<2.2.4","version":"1.8.7"},
{"range":">=1.11.0,<1.11.23||>=2.1.0,<2.1.11||>=2.2.0,<2.2.4","version":"1.8.8"},
{"range":">=1.11.0,<1.11.23||>=2.1.0,<2.1.11||>=2.2.0,<2.2.4","version":"1.8.9"},
{"range":">=1.11.0,<1.11.23||>=2.1.0,<2.1.11||>=2.2.0,<2.2.4","version":"1.8a1"},
{"range":">=1.11.0,<1.11.23||>=2.1.0,<2.1.11||>=2.2.0,<2.2.4","version":"1.8b1"},
{"range":">=1.11.0,<1.11.23||>=2.1.0,<2.1.11||>=2.2.0,<2.2.4","version":"1.8b2"},
{"range":">=1.11.0,<1.11.23||>=2.1.0,<2.1.11||>=2.2.0,<2.2.4","version":"1.8c1"},
{"range":">=1.11.0,<1.11.23||>=2.1.0,<2.1.11||>=2.2.0,<2.2.4","version":"1.9"},
{"range":">=1.11.0,<1.11.23||>=2.1.0,<2.1.11||>=2.2.0,<2.2.4","version":"1.9.1"},
{"range":">=1.11.0,<1.11.23||>=2.1.0,<2.1.11||>=2.2.0,<2.2.4","version":"1.9.10"},
{"range":">=1.11.0,<1.11.23||>=2.1.0,<2.1.11||>=2.2.0,<2.2.4","version":"1.9.11"},
{"range":">=1.11.0,<1.11.23||>=2.1.0,<2.1.11||>=2.2.0,<2.2.4","version":"1.9.12"},
{"range":">=1.11.0,<1.11.23||>=2.1.0,<2.1.11||>=2.2.0,<2.2.4","version":"1.9.13"},
{"range":">=1.11.0,<1.11.23||>=2.1.0,<2.1.11||>=2.2.0,<2.2.4","version":"1.9.2"},
{"range":">=1.11.0,<1.11.23||>=2.1.0,<2.1.11||>=2.2.0,<2.2.4","version":"1.9.3"},
{"range":">=1.11.0,<1.11.23||>=2.1.0,<2.1.11||>=2.2.0,<2.2.4","version":"1.9.4"},
{"range":">=1.11.0,<1.11.23||>=2.1.0,<2.1.11||>=2.2.0,<2.2.4","version":"1.9.5"},
{"range":">=1.11.0,<1.11.23||>=2.1.0,<2.1.11||>=2.2.0,<2.2.4","version":"1.9.6"},
{"range":">=1.11.0,<1.11.23||>=2.1.0,<2.1.11||>=2.2.0,<2.2.4","version":"1.9.7"},
{"range":">=1.11.0,<1.11.23||>=2.1.0,<2.1.11||>=2.2.0,<2.2.4","version":"1.9.8"},
{"range":">=1.11.0,<1.11.23||>=2.1.0,<2.1.11||>=2.2.0,<2.2.4","version":"1.9.9"},
{"range":">=1.11.0,<1.11.23||>=2.1.0,<2.1.11||>=2.2.0,<2.2.4","version":"1.9a1"},
{"range":">=1.11.0,<1.11.23||>=2.1.0,<2.1.11||>=2.2.0,<2.2.4","version":"1.9b1"},
{"range":">=1.11.0,<1.11.23||>=2.1.0,<2.1.11||>=2.2.0,<2.2.4","version":"1.9rc1"},
{"range":">=1.11.0,<1.11.23||>=2.1.0,<2.1.11||>=2.2.0,<2.2.4","version":"1.9rc2"},
{"range":">=1.11.0,<1.11.23||>=2.1.0,<2.1.11||>=2.2.0,<2.2.4","version":"2.0"},
{"range":">=1.11.0,<1.11.23||>=2.1.0,<2.1.11||>=2.2.0,<2.2.4","version":"2.0.1"},
{"range":">=1.11.0,<1.11.23||>=2.1.0,<2.1.11||>=2.2.0,<2.2.4","version":"2.0.10"},
{"range":">=1.11.0,<1.11.23||>=2.1.0,<2.1.11||>=2.2.0,<2.2.4","version":"2.0.12"},
{"range":">=1.11.0,<1.11.23||>=2.1.0,<2.1.11||>=2.2.0,<2.2.4","version":"2.0.13"},
{"range":">=1.11.0,<1.11.23||>=2.1.0,<2.1.11||>=2.2.0,<2.2.4","version":"2.0.2"},
{"range":">=1.11.0,<1.11.23||>=2.1.0,<2.1.11||>=2.2.0,<2.2.4","version":"2.0.3"},
{"range":">=1.11.0,<1.11.23||>=2.1.0,<2.1.11||>=2.2.0,<2.2.4","version":"2.0.4"},
{"range":">=1.11.0,<1.11.23||>=2.1.0,<2.1.11||>=2.2.0,<2.2.4","version":"2.0.5"},
{"range":">=1.11.0,<1.11.23||>=2.1.0,<2.1.11||>=2.2.0,<2.2.4","version":"2.0.6"},
{"range":">=1.11.0,<1.11.23||>=2.1.0,<2.1.11||>=2.2.0,<2.2.4","version":"2.0.7"},
{"range":">=1.11.0,<1.11.23||>=2.1.0,<2.1.11||>=2.2.0,<2.2.4","version":"2.0.8"},
{"range":">=1.11.0,<1.11.23||>=2.1.0,<2.1.11||>=2.2.0,<2.2.4","version":"2.0.9"},
{"range":">=1.11.0,<1.11.23||>=2.1.0,<2.1.11||>=2.2.0,<2.2.4","version":"2.0a1"},
{"range":">=1.11.0,<1.11.23||>=2.1.0,<2.1.11||>=2.2.0,<2.2.4","version":"2.0b1"},
{"range":">=1.11.0,<1.11.23||>=2.1.0,<2.1.11||>=2.2.0,<2.2.4","version":"2.0rc1"},
{"range":">=1.11.0,<1.11.23||>=2.1.0,<2.1.11||>=2.2.0,<2.2.4","version":"2.1"},
{"range":">=1.11.0,<1.11.23||>=2.1.0,<2.1.11||>=2.2.0,<2.2.4","version":"2.1.11"},
{"range":">=1.11.0,<1.11.23||>=2.1.0,<2.1.11||>=2.2.0,<2.2.4","version":"2.2"},
{"range":">=1.11.0,<1.11.23||>=2.1.0,<2.1.11||>=2.2.0,<2.2.4","version":"2.2.4"},
{"range":">=1.11alpha,<1.11||>=1.10.0alpha,<1.10.7||>=1.9.0alpha,<1.9.13||<1.8.18","version":"1.11a1"},
{"range":">=1.11alpha,<1.11||>=1.10.0alpha,<1.10.7||>=1.9.0alpha,<1.9.13||<1.8.18","version":"1.11b1"},
{"range":">=1.11alpha,<1.11||>=1.10.0alpha,<1.10.7||>=1.9.0alpha,<1.9.13||<1.8.18","version":"1.11rc1"},
{"range":">=1.11alpha,<1.11||>=1.10.0alpha,<1.10.7||>=1.9.0alpha,<1.9.13||<1.8.18","version":"1.7a2"},
{"range":">=1.2.3","version":"0.0.5"},
{"range":">=1.2.3","version":"1.3.3"},
{"range":">=1.3.2,<2.4.11","version":"1.3.3"},
{"range":">=1.3.2,<2.4.11","version":"4.5.7"},
{"range":">=1.4,<1.4.11rc1||>=1.5,<1.5.6||>=1.6,<1.6.3","version":"1.4.10rc2"},
{"range":">=1.4,<1.4.11rc1||>=1.5,<1.5.6||>=1.6,<1.6.3","version":"1.4.11rc2"},
{"range":">=1.4,<1.4.11||>=1.5,<1.5.6||>=1.6,<1.6.3","version":"1.0"},
{"range":">=1.4,<1.4.11||>=1.5,<1.5.6||>=1.6,<1.6.3","version":"1.6.1"}
]
