{
  "version": "15.0.4",
  "vulnerabilities": [
    {
      "id": "092c8a5868d230bc0f7f819c52bc58860f6b4d3e12e7d407cc0bfcb9ba0228f2",
      "name": "fake vuln to demonstrate scan time advisory db updates",
      "description": "fake vuln to demonstrate scan time advisory db updates",
      "severity": "Medium",
      "solution": "Upgrade to version after fake one.",
      "location": {
        "file": "go.mod",
        "dependency": {
          "package": {
            "name": "github.com/sirupsen/logrus"
          },
          "version": "v1.4.2"
        }
      },
      "identifiers": [
        {
          "type": "gemnasium",
          "name": "Gemnasium-f8d39948-1678-453e-87f5-854c53bc2d5b",
          "value": "f8d39948-1678-453e-87f5-854c53bc2d5b",
          "url": "https://gitlab.com/gitlab-org/security-products/gemnasium-db/-/blob/new-branch-foobarbaz/go/github.com/sirupsen/logrus/fake-vuln.yml"
        }
      ],
      "links": [
        {
          "url": "https://nvd.nist.gov/vuln/detail/fake-vuln"
        }
      ],
      "details": {
        "vulnerable_package": {
          "type": "text",
          "name": "Vulnerable Package",
          "value": "github.com/sirupsen/logrus:v1.4.2"
        }
      }
    }
  ],
  "dependency_files": [
    {
      "path": "go.mod",
      "package_manager": "go",
      "dependencies": [
        {
          "package": {
            "name": "github.com/minio/minio"
          },
          "version": "v0.0.0-20180419184637-5a16671f721f"
        },
        {
          "package": {
            "name": "github.com/minio/minio-go"
          },
          "version": "v6.0.14+incompatible"
        },
        {
          "package": {
            "name": "github.com/minio/sha256-simd"
          },
          "version": "v0.1.1"
        },
        {
          "package": {
            "name": "github.com/sirupsen/logrus"
          },
          "version": "v1.4.2"
        },
        {
          "package": {
            "name": "golang.org/x/sys"
          },
          "version": "v0.0.0-20191026070338-33540a1f6037"
        }
      ]
    }
  ],
  "scan": {
    "analyzer": {
      "id": "gemnasium",
      "name": "Gemnasium",
      "url": "https://gitlab.com/gitlab-org/security-products/analyzers/gemnasium",
      "vendor": {
        "name": "GitLab"
      },
      "version": "4.7.0"
    },
    "scanner": {
      "id": "gemnasium",
      "name": "Gemnasium",
      "url": "https://gitlab.com/gitlab-org/security-products/analyzers/gemnasium",
      "vendor": {
        "name": "GitLab"
      },
      "version": "4.7.0"
    },
    "type": "dependency_scanning",
    "start_time": "2023-10-24T23:01:57",
    "end_time": "2023-10-24T23:01:59",
    "status": "success"
  }
}
