{
  "version": "15.0.4",
  "vulnerabilities": [
    {
      "id": "338d431df13d5966d028ede7252a8cc5357ad91e91d1adbb6a1b92675d2b0b59",
      "name": "Improper Restriction of Operations within the Bounds of a Memory Buffer",
      "description": "A remote code execution vulnerability exists in the way that the ChakraCore scripting engine handles objects in memory.",
      "severity": "High",
      "solution": "Upgrade to version 1.11.20 or above.",
      "location": {
        "file": "src/web.api/packages.lock.json",
        "dependency": {
          "iid": 53,
          "package": {
            "name": "Microsoft.ChakraCore"
          },
          "version": "1.11.18"
        }
      },
      "identifiers": [
        {
          "type": "gemnasium",
          "name": "Gemnasium-67c33ce7-1101-4dd0-bbd4-b1585409e1c0",
          "value": "67c33ce7-1101-4dd0-bbd4-b1585409e1c0",
          "url": "https://gitlab.com/gitlab-org/security-products/gemnasium-db/-/blob/v1.2.142/nuget/Microsoft.ChakraCore/CVE-2020-1073.yml"
        },
        {
          "type": "cve",
          "name": "CVE-2020-1073",
          "value": "CVE-2020-1073",
          "url": "https://cve.mitre.org/cgi-bin/cvename.cgi?name=CVE-2020-1073"
        }
      ],
      "links": [
        {
          "url": "https://nvd.nist.gov/vuln/detail/CVE-2020-1073"
        },
        {
          "url": "https://portal.msrc.microsoft.com/en-US/security-guidance/advisory/CVE-2020-1073"
        }
      ],
      "details": {
        "vulnerable_package": {
          "name": "Vulnerable Package",
          "type": "text",
          "value": "Microsoft.ChakraCore:1.11.18"
        }
      }
    },
    {
      "id": "3c1f8180696035c9c5f2ef2a9fb0889da231d6f7c98e1629647a1483d5a5bf6c",
      "name": "Improper Restriction of Operations within the Bounds of a Memory Buffer",
      "description": "A remote code execution vulnerability exists in the way that the ChakraCore scripting engine handles objects in memory.",
      "severity": "High",
      "solution": "Upgrade to version 1.11.19 or above.",
      "location": {
        "file": "src/web.api/packages.lock.json",
        "dependency": {
          "iid": 53,
          "package": {
            "name": "Microsoft.ChakraCore"
          },
          "version": "1.11.18"
        }
      },
      "identifiers": [
        {
          "type": "gemnasium",
          "name": "Gemnasium-95dc11dc-fa8f-46b1-9170-57b11100d7c7",
          "value": "95dc11dc-fa8f-46b1-9170-57b11100d7c7",
          "url": "https://gitlab.com/gitlab-org/security-products/gemnasium-db/-/blob/v1.2.142/nuget/Microsoft.ChakraCore/CVE-2020-1065.yml"
        },
        {
          "type": "cve",
          "name": "CVE-2020-1065",
          "value": "CVE-2020-1065",
          "url": "https://cve.mitre.org/cgi-bin/cvename.cgi?name=CVE-2020-1065"
        }
      ],
      "links": [
        {
          "url": "https://nvd.nist.gov/vuln/detail/CVE-2020-1065"
        },
        {
          "url": "https://portal.msrc.microsoft.com/en-US/security-guidance/advisory/CVE-2020-1065"
        }
      ],
      "details": {
        "vulnerable_package": {
          "name": "Vulnerable Package",
          "type": "text",
          "value": "Microsoft.ChakraCore:1.11.18"
        }
      }
    },
    {
      "id": "d5011d96e4493d6d47d042e8cef3ce2890fab8f1f68f6fa8637630fd867609c4",
      "name": "Improper Restriction of Operations within the Bounds of a Memory Buffer",
      "description": "A remote code execution vulnerability exists in the way that Microsoft browsers access objects in memory.",
      "severity": "High",
      "solution": "Upgrade to version 1.11.20 or above.",
      "location": {
        "file": "src/web.api/packages.lock.json",
        "dependency": {
          "iid": 53,
          "package": {
            "name": "Microsoft.ChakraCore"
          },
          "version": "1.11.18"
        }
      },
      "identifiers": [
        {
          "type": "gemnasium",
          "name": "Gemnasium-eb211d3b-ee66-49c8-84a2-43d8d00b21ec",
          "value": "eb211d3b-ee66-49c8-84a2-43d8d00b21ec",
          "url": "https://gitlab.com/gitlab-org/security-products/gemnasium-db/-/blob/v1.2.142/nuget/Microsoft.ChakraCore/CVE-2020-1219.yml"
        },
        {
          "type": "cve",
          "name": "CVE-2020-1219",
          "value": "CVE-2020-1219",
          "url": "https://cve.mitre.org/cgi-bin/cvename.cgi?name=CVE-2020-1219"
        }
      ],
      "links": [
        {
          "url": "https://nvd.nist.gov/vuln/detail/CVE-2020-1219"
        },
        {
          "url": "https://portal.msrc.microsoft.com/en-US/security-guidance/advisory/CVE-2020-1219"
        },
        {
          "url": "https://www.zerodayinitiative.com/advisories/ZDI-20-698/"
        }
      ],
      "details": {
        "vulnerable_package": {
          "name": "Vulnerable Package",
          "type": "text",
          "value": "Microsoft.ChakraCore:1.11.18"
        }
      }
    }
  ],
  "dependency_files": [
    {
      "path": "src/web.api/packages.lock.json",
      "package_manager": "nuget",
      "dependencies": [
        {
          "iid": 80,
          "dependency_path": [
            {
              "iid": 71
            }
          ],
          "package": {
            "name": "Antlr3.Runtime"
          },
          "version": "3.5.1"
        },
        {
          "iid": 8,
          "dependency_path": [
            {
              "iid": 71
            }
          ],
          "package": {
            "name": "Iesi.Collections"
          },
          "version": "4.0.4"
        },
        {
          "iid": 53,
          "direct": true,
          "package": {
            "name": "Microsoft.ChakraCore"
          },
          "version": "1.11.18"
        },
        {
          "iid": 48,
          "dependency_path": [
            {
              "iid": 71
            },
            {
              "iid": 74
            },
            {
              "iid": 70
            }
          ],
          "package": {
            "name": "Microsoft.NETCore.Platforms"
          },
          "version": "1.1.0"
        },
        {
          "iid": 33,
          "dependency_path": [
            {
              "iid": 71
            },
            {
              "iid": 74
            },
            {
              "iid": 70
            }
          ],
          "package": {
            "name": "Microsoft.NETCore.Targets"
          },
          "version": "1.1.0"
        },
        {
          "iid": 19,
          "dependency_path": [
            {
              "iid": 71
            },
            {
              "iid": 8
            },
            {
              "iid": 76
            }
          ],
          "package": {
            "name": "Microsoft.Win32.Primitives"
          },
          "version": "4.3.0"
        },
        {
          "iid": 87,
          "direct": true,
          "package": {
            "name": "MvcMailer"
          },
          "version": "4.5.0"
        },
        {
          "iid": 76,
          "dependency_path": [
            {
              "iid": 71
            },
            {
              "iid": 8
            }
          ],
          "package": {
            "name": "NETStandard.Library"
          },
          "version": "1.6.1"
        },
        {
          "iid": 71,
          "direct": true,
          "package": {
            "name": "NHibernate"
          },
          "version": "5.2.6"
        },
        {
          "iid": 41,
          "direct": true,
          "package": {
            "name": "NodaTime"
          },
          "version": "2.4.7"
        },
        {
          "iid": 74,
          "dependency_path": [
            {
              "iid": 71
            }
          ],
          "package": {
            "name": "Remotion.Linq"
          },
          "version": "2.2.0"
        },
        {
          "iid": 34,
          "dependency_path": [
            {
              "iid": 71
            }
          ],
          "package": {
            "name": "Remotion.Linq.EagerFetching"
          },
          "version": "2.2.0"
        },
        {
          "iid": 81,
          "dependency_path": [
            {
              "iid": 71
            },
            {
              "iid": 8
            },
            {
              "iid": 76
            }
          ],
          "package": {
            "name": "System.AppContext"
          },
          "version": "4.3.0"
        },
        {
          "iid": 54,
          "dependency_path": [
            {
              "iid": 71
            },
            {
              "iid": 8
            },
            {
              "iid": 76
            },
            {
              "iid": 32
            }
          ],
          "package": {
            "name": "System.Buffers"
          },
          "version": "4.3.0"
        },
        {
          "iid": 3,
          "dependency_path": [
            {
              "iid": 71
            },
            {
              "iid": 34
            }
          ],
          "package": {
            "name": "System.Collections"
          },
          "version": "4.3.0"
        },
        {
          "iid": 67,
          "dependency_path": [
            {
              "iid": 71
            },
            {
              "iid": 8
            },
            {
              "iid": 76
            }
          ],
          "package": {
            "name": "System.Collections.Concurrent"
          },
          "version": "4.3.0"
        },
        {
          "iid": 26,
          "dependency_path": [
            {
              "iid": 71
            }
          ],
          "package": {
            "name": "System.Configuration.ConfigurationManager"
          },
          "version": "4.4.1"
        },
        {
          "iid": 55,
          "dependency_path": [
            {
              "iid": 71
            },
            {
              "iid": 8
            },
            {
              "iid": 76
            }
          ],
          "package": {
            "name": "System.Console"
          },
          "version": "4.3.0"
        },
        {
          "iid": 82,
          "dependency_path": [
            {
              "iid": 71
            },
            {
              "iid": 74
            }
          ],
          "package": {
            "name": "System.Diagnostics.Debug"
          },
          "version": "4.3.0"
        },
        {
          "iid": 83,
          "dependency_path": [
            {
              "iid": 71
            },
            {
              "iid": 8
            },
            {
              "iid": 76
            },
            {
              "iid": 38
            }
          ],
          "package": {
            "name": "System.Diagnostics.DiagnosticSource"
          },
          "version": "4.3.0"
        },
        {
          "iid": 84,
          "dependency_path": [
            {
              "iid": 71
            },
            {
              "iid": 8
            },
            {
              "iid": 76
            }
          ],
          "package": {
            "name": "System.Diagnostics.Tools"
          },
          "version": "4.3.0"
        },
        {
          "iid": 68,
          "dependency_path": [
            {
              "iid": 71
            },
            {
              "iid": 8
            },
            {
              "iid": 76
            }
          ],
          "package": {
            "name": "System.Diagnostics.Tracing"
          },
          "version": "4.3.0"
        },
        {
          "iid": 15,
          "dependency_path": [
            {
              "iid": 71
            },
            {
              "iid": 8
            },
            {
              "iid": 76
            }
          ],
          "package": {
            "name": "System.Globalization"
          },
          "version": "4.3.0"
        },
        {
          "iid": 61,
          "dependency_path": [
            {
              "iid": 71
            },
            {
              "iid": 8
            },
            {
              "iid": 76
            }
          ],
          "package": {
            "name": "System.Globalization.Calendars"
          },
          "version": "4.3.0"
        },
        {
          "iid": 31,
          "dependency_path": [
            {
              "iid": 71
            },
            {
              "iid": 8
            },
            {
              "iid": 76
            },
            {
              "iid": 38
            }
          ],
          "package": {
            "name": "System.Globalization.Extensions"
          },
          "version": "4.3.0"
        },
        {
          "iid": 62,
          "dependency_path": [
            {
              "iid": 71
            },
            {
              "iid": 8
            },
            {
              "iid": 76
            }
          ],
          "package": {
            "name": "System.IO"
          },
          "version": "4.3.0"
        },
        {
          "iid": 36,
          "dependency_path": [
            {
              "iid": 71
            },
            {
              "iid": 8
            },
            {
              "iid": 76
            }
          ],
          "package": {
            "name": "System.IO.Compression"
          },
          "version": "4.3.0"
        },
        {
          "iid": 32,
          "dependency_path": [
            {
              "iid": 71
            },
            {
              "iid": 8
            },
            {
              "iid": 76
            }
          ],
          "package": {
            "name": "System.IO.Compression.ZipFile"
          },
          "version": "4.3.0"
        },
        {
          "iid": 56,
          "dependency_path": [
            {
              "iid": 71
            },
            {
              "iid": 8
            },
            {
              "iid": 76
            }
          ],
          "package": {
            "name": "System.IO.FileSystem"
          },
          "version": "4.3.0"
        },
        {
          "iid": 57,
          "dependency_path": [
            {
              "iid": 71
            },
            {
              "iid": 8
            },
            {
              "iid": 76
            }
          ],
          "package": {
            "name": "System.IO.FileSystem.Primitives"
          },
          "version": "4.3.0"
        },
        {
          "iid": 21,
          "dependency_path": [
            {
              "iid": 71
            },
            {
              "iid": 34
            }
          ],
          "package": {
            "name": "System.Linq"
          },
          "version": "4.3.0"
        },
        {
          "iid": 37,
          "dependency_path": [
            {
              "iid": 71
            },
            {
              "iid": 34
            }
          ],
          "package": {
            "name": "System.Linq.Expressions"
          },
          "version": "4.3.0"
        },
        {
          "iid": 4,
          "dependency_path": [
            {
              "iid": 71
            },
            {
              "iid": 74
            }
          ],
          "package": {
            "name": "System.Linq.Queryable"
          },
          "version": "4.0.1"
        },
        {
          "iid": 38,
          "dependency_path": [
            {
              "iid": 71
            },
            {
              "iid": 8
            },
            {
              "iid": 76
            }
          ],
          "package": {
            "name": "System.Net.Http"
          },
          "version": "4.3.0"
        },
        {
          "iid": 27,
          "dependency_path": [
            {
              "iid": 71
            },
            {
              "iid": 8
            },
            {
              "iid": 76
            }
          ],
          "package": {
            "name": "System.Net.Primitives"
          },
          "version": "4.3.0"
        },
        {
          "iid": 50,
          "dependency_path": [
            {
              "iid": 71
            },
            {
              "iid": 8
            },
            {
              "iid": 76
            }
          ],
          "package": {
            "name": "System.Net.Sockets"
          },
          "version": "4.3.0"
        },
        {
          "iid": 85,
          "dependency_path": [
            {
              "iid": 71
            },
            {
              "iid": 34
            }
          ],
          "package": {
            "name": "System.ObjectModel"
          },
          "version": "4.3.0"
        },
        {
          "iid": 11,
          "dependency_path": [
            {
              "iid": 71
            },
            {
              "iid": 34
            }
          ],
          "package": {
            "name": "System.Reflection"
          },
          "version": "4.3.0"
        },
        {
          "iid": 69,
          "dependency_path": [
            {
              "iid": 71
            },
            {
              "iid": 34
            },
            {
              "iid": 37
            }
          ],
          "package": {
            "name": "System.Reflection.Emit"
          },
          "version": "4.3.0"
        },
        {
          "iid": 77,
          "dependency_path": [
            {
              "iid": 71
            },
            {
              "iid": 34
            },
            {
              "iid": 37
            }
          ],
          "package": {
            "name": "System.Reflection.Emit.ILGeneration"
          },
          "version": "4.3.0"
        },
        {
          "iid": 45,
          "dependency_path": [
            {
              "iid": 71
            },
            {
              "iid": 34
            },
            {
              "iid": 37
            }
          ],
          "package": {
            "name": "System.Reflection.Emit.Lightweight"
          },
          "version": "4.3.0"
        },
        {
          "iid": 5,
          "dependency_path": [
            {
              "iid": 71
            },
            {
              "iid": 74
            }
          ],
          "package": {
            "name": "System.Reflection.Extensions"
          },
          "version": "4.3.0"
        },
        {
          "iid": 51,
          "dependency_path": [
            {
              "iid": 71
            },
            {
              "iid": 8
            },
            {
              "iid": 76
            }
          ],
          "package": {
            "name": "System.Reflection.Primitives"
          },
          "version": "4.3.0"
        },
        {
          "iid": 6,
          "dependency_path": [
            {
              "iid": 71
            },
            {
              "iid": 34
            },
            {
              "iid": 37
            }
          ],
          "package": {
            "name": "System.Reflection.TypeExtensions"
          },
          "version": "4.3.0"
        },
        {
          "iid": 63,
          "dependency_path": [
            {
              "iid": 71
            },
            {
              "iid": 34
            },
            {
              "iid": 85
            }
          ],
          "package": {
            "name": "System.Resources.ResourceManager"
          },
          "version": "4.3.0"
        },
        {
          "iid": 7,
          "dependency_path": [
            {
              "iid": 71
            },
            {
              "iid": 34
            }
          ],
          "package": {
            "name": "System.Runtime"
          },
          "version": "4.3.0"
        },
        {
          "iid": 70,
          "dependency_path": [
            {
              "iid": 71
            },
            {
              "iid": 74
            }
          ],
          "package": {
            "name": "System.Runtime.Extensions"
          },
          "version": "4.3.0"
        },
        {
          "iid": 73,
          "dependency_path": [
            {
              "iid": 71
            },
            {
              "iid": 8
            },
            {
              "iid": 76
            }
          ],
          "package": {
            "name": "System.Runtime.Handles"
          },
          "version": "4.3.0"
        },
        {
          "iid": 16,
          "dependency_path": [
            {
              "iid": 71
            },
            {
              "iid": 8
            },
            {
              "iid": 76
            }
          ],
          "package": {
            "name": "System.Runtime.InteropServices"
          },
          "version": "4.3.0"
        },
        {
          "iid": 58,
          "dependency_path": [
            {
              "iid": 71
            },
            {
              "iid": 8
            },
            {
              "iid": 76
            }
          ],
          "package": {
            "name": "System.Runtime.InteropServices.RuntimeInformation"
          },
          "version": "4.3.0"
        },
        {
          "iid": 17,
          "dependency_path": [
            {
              "iid": 71
            },
            {
              "iid": 8
            },
            {
              "iid": 76
            }
          ],
          "package": {
            "name": "System.Runtime.Numerics"
          },
          "version": "4.3.0"
        },
        {
          "iid": 64,
          "dependency_path": [
            {
              "iid": 71
            },
            {
              "iid": 8
            }
          ],
          "package": {
            "name": "System.Runtime.Serialization.Formatters"
          },
          "version": "4.3.0"
        },
        {
          "iid": 39,
          "dependency_path": [
            {
              "iid": 71
            },
            {
              "iid": 8
            },
            {
              "iid": 64
            }
          ],
          "package": {
            "name": "System.Runtime.Serialization.Primitives"
          },
          "version": "4.3.0"
        },
        {
          "iid": 22,
          "dependency_path": [
            {
              "iid": 71
            },
            {
              "iid": 8
            },
            {
              "iid": 76
            }
          ],
          "package": {
            "name": "System.Security.Cryptography.Algorithms"
          },
          "version": "4.3.0"
        },
        {
          "iid": 86,
          "dependency_path": [
            {
              "iid": 71
            },
            {
              "iid": 8
            },
            {
              "iid": 76
            },
            {
              "iid": 9
            }
          ],
          "package": {
            "name": "System.Security.Cryptography.Cng"
          },
          "version": "4.3.0"
        },
        {
          "iid": 10,
          "dependency_path": [
            {
              "iid": 71
            },
            {
              "iid": 8
            },
            {
              "iid": 76
            },
            {
              "iid": 9
            }
          ],
          "package": {
            "name": "System.Security.Cryptography.Csp"
          },
          "version": "4.3.0"
        },
        {
          "iid": 46,
          "dependency_path": [
            {
              "iid": 71
            },
            {
              "iid": 8
            },
            {
              "iid": 76
            }
          ],
          "package": {
            "name": "System.Security.Cryptography.Encoding"
          },
          "version": "4.3.0"
        },
        {
          "iid": 88,
          "dependency_path": [
            {
              "iid": 71
            },
            {
              "iid": 8
            },
            {
              "iid": 76
            },
            {
              "iid": 38
            }
          ],
          "package": {
            "name": "System.Security.Cryptography.OpenSsl"
          },
          "version": "4.3.0"
        },
        {
          "iid": 75,
          "dependency_path": [
            {
              "iid": 71
            },
            {
              "iid": 8
            },
            {
              "iid": 76
            }
          ],
          "package": {
            "name": "System.Security.Cryptography.Primitives"
          },
          "version": "4.3.0"
        },
        {
          "iid": 40,
          "dependency_path": [
            {
              "iid": 71
            },
            {
              "iid": 26
            }
          ],
          "package": {
            "name": "System.Security.Cryptography.ProtectedData"
          },
          "version": "4.4.0"
        },
        {
          "iid": 9,
          "dependency_path": [
            {
              "iid": 71
            },
            {
              "iid": 8
            },
            {
              "iid": 76
            }
          ],
          "package": {
            "name": "System.Security.Cryptography.X509Certificates"
          },
          "version": "4.3.0"
        },
        {
          "iid": 23,
          "dependency_path": [
            {
              "iid": 71
            },
            {
              "iid": 8
            },
            {
              "iid": 76
            }
          ],
          "package": {
            "name": "System.Text.Encoding"
          },
          "version": "4.3.0"
        },
        {
          "iid": 42,
          "dependency_path": [
            {
              "iid": 71
            },
            {
              "iid": 8
            },
            {
              "iid": 76
            }
          ],
          "package": {
            "name": "System.Text.Encoding.Extensions"
          },
          "version": "4.3.0"
        },
        {
          "iid": 28,
          "dependency_path": [
            {
              "iid": 71
            },
            {
              "iid": 8
            },
            {
              "iid": 76
            }
          ],
          "package": {
            "name": "System.Text.RegularExpressions"
          },
          "version": "4.3.0"
        },
        {
          "iid": 47,
          "dependency_path": [
            {
              "iid": 71
            },
            {
              "iid": 74
            }
          ],
          "package": {
            "name": "System.Threading"
          },
          "version": "4.3.0"
        },
        {
          "iid": 78,
          "dependency_path": [
            {
              "iid": 71
            },
            {
              "iid": 8
            },
            {
              "iid": 76
            }
          ],
          "package": {
            "name": "System.Threading.Tasks"
          },
          "version": "4.3.0"
        },
        {
          "iid": 52,
          "dependency_path": [
            {
              "iid": 71
            },
            {
              "iid": 8
            },
            {
              "iid": 76
            },
            {
              "iid": 29
            }
          ],
          "package": {
            "name": "System.Threading.Tasks.Extensions"
          },
          "version": "4.3.0"
        },
        {
          "iid": 12,
          "dependency_path": [
            {
              "iid": 71
            },
            {
              "iid": 8
            },
            {
              "iid": 76
            }
          ],
          "package": {
            "name": "System.Threading.Timer"
          },
          "version": "4.3.0"
        },
        {
          "iid": 29,
          "dependency_path": [
            {
              "iid": 71
            },
            {
              "iid": 8
            },
            {
              "iid": 76
            }
          ],
          "package": {
            "name": "System.Xml.ReaderWriter"
          },
          "version": "4.3.0"
        },
        {
          "iid": 24,
          "dependency_path": [
            {
              "iid": 71
            },
            {
              "iid": 8
            },
            {
              "iid": 76
            }
          ],
          "package": {
            "name": "System.Xml.XDocument"
          },
          "version": "4.3.0"
        },
        {
          "iid": 18,
          "dependency_path": [
            {
              "iid": 87
            }
          ],
          "package": {
            "name": "T4Scaffolding.Core"
          },
          "version": "1.0.0"
        },
        {
          "iid": 59,
          "direct": true,
          "package": {
            "name": "jive"
          },
          "version": "0.1.0"
        },
        {
          "iid": 13,
          "dependency_path": [
            {
              "iid": 71
            },
            {
              "iid": 8
            },
            {
              "iid": 76
            },
            {
              "iid": 46
            },
            {
              "iid": 25
            }
          ],
          "package": {
            "name": "runtime.debian.8-x64.runtime.native.System.Security.Cryptography.OpenSsl"
          },
          "version": "4.3.0"
        },
        {
          "iid": 65,
          "dependency_path": [
            {
              "iid": 71
            },
            {
              "iid": 8
            },
            {
              "iid": 76
            },
            {
              "iid": 46
            },
            {
              "iid": 25
            }
          ],
          "package": {
            "name": "runtime.fedora.23-x64.runtime.native.System.Security.Cryptography.OpenSsl"
          },
          "version": "4.3.0"
        },
        {
          "iid": 60,
          "dependency_path": [
            {
              "iid": 71
            },
            {
              "iid": 8
            },
            {
              "iid": 76
            },
            {
              "iid": 46
            },
            {
              "iid": 25
            }
          ],
          "package": {
            "name": "runtime.fedora.24-x64.runtime.native.System.Security.Cryptography.OpenSsl"
          },
          "version": "4.3.0"
        },
        {
          "iid": 43,
          "dependency_path": [
            {
              "iid": 71
            },
            {
              "iid": 8
            },
            {
              "iid": 76
            },
            {
              "iid": 38
            }
          ],
          "package": {
            "name": "runtime.native.System"
          },
          "version": "4.3.0"
        },
        {
          "iid": 49,
          "dependency_path": [
            {
              "iid": 71
            },
            {
              "iid": 8
            },
            {
              "iid": 76
            },
            {
              "iid": 36
            }
          ],
          "package": {
            "name": "runtime.native.System.IO.Compression"
          },
          "version": "4.3.0"
        },
        {
          "iid": 1,
          "dependency_path": [
            {
              "iid": 71
            },
            {
              "iid": 8
            },
            {
              "iid": 76
            },
            {
              "iid": 38
            }
          ],
          "package": {
            "name": "runtime.native.System.Net.Http"
          },
          "version": "4.3.0"
        },
        {
          "iid": 79,
          "dependency_path": [
            {
              "iid": 71
            },
            {
              "iid": 8
            },
            {
              "iid": 76
            },
            {
              "iid": 22
            }
          ],
          "package": {
            "name": "runtime.native.System.Security.Cryptography.Apple"
          },
          "version": "4.3.0"
        },
        {
          "iid": 25,
          "dependency_path": [
            {
              "iid": 71
            },
            {
              "iid": 8
            },
            {
              "iid": 76
            },
            {
              "iid": 46
            }
          ],
          "package": {
            "name": "runtime.native.System.Security.Cryptography.OpenSsl"
          },
          "version": "4.3.0"
        },
        {
          "iid": 14,
          "dependency_path": [
            {
              "iid": 71
            },
            {
              "iid": 8
            },
            {
              "iid": 76
            },
            {
              "iid": 46
            },
            {
              "iid": 25
            }
          ],
          "package": {
            "name": "runtime.opensuse.13.2-x64.runtime.native.System.Security.Cryptography.OpenSsl"
          },
          "version": "4.3.0"
        },
        {
          "iid": 44,
          "dependency_path": [
            {
              "iid": 71
            },
            {
              "iid": 8
            },
            {
              "iid": 76
            },
            {
              "iid": 46
            },
            {
              "iid": 25
            }
          ],
          "package": {
            "name": "runtime.opensuse.42.1-x64.runtime.native.System.Security.Cryptography.OpenSsl"
          },
          "version": "4.3.0"
        },
        {
          "iid": 66,
          "dependency_path": [
            {
              "iid": 71
            },
            {
              "iid": 8
            },
            {
              "iid": 76
            },
            {
              "iid": 22
            },
            {
              "iid": 79
            }
          ],
          "package": {
            "name": "runtime.osx.10.10-x64.runtime.native.System.Security.Cryptography.Apple"
          },
          "version": "4.3.0"
        },
        {
          "iid": 2,
          "dependency_path": [
            {
              "iid": 71
            },
            {
              "iid": 8
            },
            {
              "iid": 76
            },
            {
              "iid": 46
            },
            {
              "iid": 25
            }
          ],
          "package": {
            "name": "runtime.osx.10.10-x64.runtime.native.System.Security.Cryptography.OpenSsl"
          },
          "version": "4.3.0"
        },
        {
          "iid": 30,
          "dependency_path": [
            {
              "iid": 71
            },
            {
              "iid": 8
            },
            {
              "iid": 76
            },
            {
              "iid": 46
            },
            {
              "iid": 25
            }
          ],
          "package": {
            "name": "runtime.rhel.7-x64.runtime.native.System.Security.Cryptography.OpenSsl"
          },
          "version": "4.3.0"
        },
        {
          "iid": 20,
          "dependency_path": [
            {
              "iid": 71
            },
            {
              "iid": 8
            },
            {
              "iid": 76
            },
            {
              "iid": 46
            },
            {
              "iid": 25
            }
          ],
          "package": {
            "name": "runtime.ubuntu.14.04-x64.runtime.native.System.Security.Cryptography.OpenSsl"
          },
          "version": "4.3.0"
        },
        {
          "iid": 35,
          "dependency_path": [
            {
              "iid": 71
            },
            {
              "iid": 8
            },
            {
              "iid": 76
            },
            {
              "iid": 46
            },
            {
              "iid": 25
            }
          ],
          "package": {
            "name": "runtime.ubuntu.16.04-x64.runtime.native.System.Security.Cryptography.OpenSsl"
          },
          "version": "4.3.0"
        },
        {
          "iid": 72,
          "dependency_path": [
            {
              "iid": 71
            },
            {
              "iid": 8
            },
            {
              "iid": 76
            },
            {
              "iid": 46
            },
            {
              "iid": 25
            }
          ],
          "package": {
            "name": "runtime.ubuntu.16.10-x64.runtime.native.System.Security.Cryptography.OpenSsl"
          },
          "version": "4.3.0"
        }
      ]
    }
  ],
  "scan": {
    "analyzer": {
      "id": "gemnasium",
      "name": "Gemnasium",
      "url": "https://gitlab.com/gitlab-org/security-products/analyzers/gemnasium",
      "vendor": {
        "name": "GitLab"
      },
      "version": "3.6.0"
    },
    "scanner": {
      "id": "gemnasium",
      "name": "Gemnasium",
      "url": "https://gitlab.com/gitlab-org/security-products/analyzers/gemnasium",
      "vendor": {
        "name": "GitLab"
      },
      "version": "2.33.0"
    },
    "type": "dependency_scanning",
    "start_time": "2022-02-16T04:36:35",
    "end_time": "2022-02-16T04:36:38",
    "status": "success"
  }
}
